EESchema Schematic File Version 2
LIBS:power
LIBS:device
LIBS:switches
LIBS:relays
LIBS:motors
LIBS:transistors
LIBS:conn
LIBS:linear
LIBS:regul
LIBS:74xx
LIBS:cmos4000
LIBS:adc-dac
LIBS:memory
LIBS:xilinx
LIBS:microcontrollers
LIBS:dsp
LIBS:microchip
LIBS:analog_switches
LIBS:motorola
LIBS:texas
LIBS:intel
LIBS:audio
LIBS:interface
LIBS:digital-audio
LIBS:philips
LIBS:display
LIBS:cypress
LIBS:siliconi
LIBS:opto
LIBS:atmel
LIBS:contrib
LIBS:valves
LIBS:custom_library
EELAYER 25 0
EELAYER END
$Descr A4 11693 8268
encoding utf-8
Sheet 1 1
Title "Rig PCB prototype board "
Date "2018-01-04"
Rev "0"
Comp "Nerf - Bonin Lab"
Comment1 "Joao Couto"
Comment2 "Adrien Philippon"
Comment3 ""
Comment4 ""
$EndDescr
Text Notes 650  750  0    60   ~ 12
Rig interface board\n- PCB Arduino
$Comp
L GND #PWR01
U 1 1 5A4E54F1
P 1900 6700
F 0 "#PWR01" H 1900 6450 50  0001 C CNN
F 1 "GND" H 1900 6550 50  0000 C CNN
F 2 "" H 1900 6700 50  0001 C CNN
F 3 "" H 1900 6700 50  0001 C CNN
	1    1900 6700
	0    -1   -1   0   
$EndComp
$Comp
L +12V #PWR02
U 1 1 5A4E5533
P 2100 6800
F 0 "#PWR02" H 2100 6650 50  0001 C CNN
F 1 "+12V" H 2100 6940 50  0000 C CNN
F 2 "" H 2100 6800 50  0001 C CNN
F 3 "" H 2100 6800 50  0001 C CNN
	1    2100 6800
	0    1    1    0   
$EndComp
$Comp
L +5V #PWR03
U 1 1 5A4E5575
P 1950 6900
F 0 "#PWR03" H 1950 6750 50  0001 C CNN
F 1 "+5V" H 1950 7040 50  0000 C CNN
F 2 "" H 1950 6900 50  0001 C CNN
F 3 "" H 1950 6900 50  0001 C CNN
	1    1950 6900
	0    1    1    0   
$EndComp
Text Label 1900 7000 0    60   ~ 0
CH1
Text Label 1900 7100 0    60   ~ 0
CH2
Text Label 1050 7000 2    60   ~ 0
GENERIC2
Text Label 1900 7200 0    60   ~ 0
PHOTO
Text Label 1900 7300 0    60   ~ 0
Valve1
Text Label 1050 6800 2    60   ~ 0
LICK2
Text Label 1050 6900 2    60   ~ 0
GENERIC1
Text Label 1900 7400 0    60   ~ 0
Valve2
Text Label 1050 6700 2    60   ~ 0
LICK1
Text Label 1050 7100 2    60   ~ 0
GENERIC3
$Comp
L MM74HCT05N U1
U 1 1 5A4E647E
P 4650 2550
F 0 "U1" H 4650 2100 60  0000 C CNN
F 1 "MM74HCT05N" H 4650 3000 60  0000 C CNN
F 2 "footprints:MM74HCT05N" H 4450 2700 60  0001 C CNN
F 3 "" H 4450 2700 60  0001 C CNN
	1    4650 2550
	1    0    0    -1  
$EndComp
$Comp
L LED D1
U 1 1 5A4E6725
P 3750 5700
F 0 "D1" H 3750 5800 50  0000 C CNN
F 1 "LED" H 3750 5600 50  0000 C CNN
F 2 "LEDs:LED_D3.0mm" H 3750 5700 50  0001 C CNN
F 3 "" H 3750 5700 50  0001 C CNN
	1    3750 5700
	0    1    1    0   
$EndComp
$Comp
L PWR_FLAG #FLG04
U 1 1 5A4E82DF
P 5000 6700
F 0 "#FLG04" H 5000 6775 50  0001 C CNN
F 1 "PWR_FLAG" H 5000 6850 50  0000 C CNN
F 2 "" H 5000 6700 50  0001 C CNN
F 3 "" H 5000 6700 50  0001 C CNN
	1    5000 6700
	1    0    0    -1  
$EndComp
$Comp
L PWR_FLAG #FLG05
U 1 1 5A4E8325
P 5750 6800
F 0 "#FLG05" H 5750 6875 50  0001 C CNN
F 1 "PWR_FLAG" H 5750 6950 50  0000 C CNN
F 2 "" H 5750 6800 50  0001 C CNN
F 3 "" H 5750 6800 50  0001 C CNN
	1    5750 6800
	1    0    0    -1  
$EndComp
$Comp
L PWR_FLAG #FLG06
U 1 1 5A4E836B
P 6200 6800
F 0 "#FLG06" H 6200 6875 50  0001 C CNN
F 1 "PWR_FLAG" H 6200 6950 50  0000 C CNN
F 2 "" H 6200 6800 50  0001 C CNN
F 3 "" H 6200 6800 50  0001 C CNN
	1    6200 6800
	1    0    0    -1  
$EndComp
$Comp
L +12V #PWR07
U 1 1 5A4E83B1
P 5000 6800
F 0 "#PWR07" H 5000 6650 50  0001 C CNN
F 1 "+12V" H 5000 6940 50  0000 C CNN
F 2 "" H 5000 6800 50  0001 C CNN
F 3 "" H 5000 6800 50  0001 C CNN
	1    5000 6800
	-1   0    0    1   
$EndComp
$Comp
L +5V #PWR08
U 1 1 5A4E83F7
P 5750 6900
F 0 "#PWR08" H 5750 6750 50  0001 C CNN
F 1 "+5V" H 5750 7040 50  0000 C CNN
F 2 "" H 5750 6900 50  0001 C CNN
F 3 "" H 5750 6900 50  0001 C CNN
	1    5750 6900
	-1   0    0    1   
$EndComp
$Comp
L GND #PWR09
U 1 1 5A4E843D
P 6200 6900
F 0 "#PWR09" H 6200 6650 50  0001 C CNN
F 1 "GND" H 6200 6750 50  0000 C CNN
F 2 "" H 6200 6900 50  0001 C CNN
F 3 "" H 6200 6900 50  0001 C CNN
	1    6200 6900
	1    0    0    -1  
$EndComp
Text Notes 4900 6450 0    60   ~ 12
Power flags
$Comp
L +5V #PWR010
U 1 1 5A4ED15B
P 700 5600
F 0 "#PWR010" H 700 5450 50  0001 C CNN
F 1 "+5V" H 700 5740 50  0000 C CNN
F 2 "" H 700 5600 50  0001 C CNN
F 3 "" H 700 5600 50  0001 C CNN
	1    700  5600
	0    -1   -1   0   
$EndComp
$Comp
L GND #PWR011
U 1 1 5A4ED9C4
P 700 5000
F 0 "#PWR011" H 700 4750 50  0001 C CNN
F 1 "GND" H 700 4850 50  0000 C CNN
F 2 "" H 700 5000 50  0001 C CNN
F 3 "" H 700 5000 50  0001 C CNN
	1    700  5000
	0    1    1    0   
$EndComp
$Comp
L GND #PWR012
U 1 1 5A4EDA10
P 700 5200
F 0 "#PWR012" H 700 4950 50  0001 C CNN
F 1 "GND" H 700 5050 50  0000 C CNN
F 2 "" H 700 5200 50  0001 C CNN
F 3 "" H 700 5200 50  0001 C CNN
	1    700  5200
	0    1    -1   0   
$EndComp
$Comp
L GND #PWR013
U 1 1 5A4EDAE0
P 700 5100
F 0 "#PWR013" H 700 4850 50  0001 C CNN
F 1 "GND" H 700 4950 50  0000 C CNN
F 2 "" H 700 5100 50  0001 C CNN
F 3 "" H 700 5100 50  0001 C CNN
	1    700  5100
	0    1    -1   0   
$EndComp
$Comp
L R R35
U 1 1 5A4F0C81
P 3750 5350
F 0 "R35" V 3830 5350 50  0000 C CNN
F 1 "1k" V 3750 5350 50  0000 C CNN
F 2 "Resistors_THT:R_Axial_DIN0207_L6.3mm_D2.5mm_P7.62mm_Horizontal" V 3680 5350 50  0001 C CNN
F 3 "" H 3750 5350 50  0001 C CNN
	1    3750 5350
	1    0    0    -1  
$EndComp
$Comp
L R R2
U 1 1 5A4F5053
P 6150 1650
F 0 "R2" V 6230 1650 50  0000 C CNN
F 1 "2k" V 6150 1650 50  0000 C CNN
F 2 "Resistors_THT:R_Axial_DIN0207_L6.3mm_D2.5mm_P7.62mm_Horizontal" V 6080 1650 50  0001 C CNN
F 3 "" H 6150 1650 50  0001 C CNN
	1    6150 1650
	1    0    0    -1  
$EndComp
$Comp
L GND #PWR014
U 1 1 5A4F5059
P 6150 1850
F 0 "#PWR014" H 6150 1600 50  0001 C CNN
F 1 "GND" H 6150 1700 50  0000 C CNN
F 2 "" H 6150 1850 50  0001 C CNN
F 3 "" H 6150 1850 50  0001 C CNN
	1    6150 1850
	1    0    0    -1  
$EndComp
Text Label 6250 1500 0    60   ~ 0
Due18
$Comp
L R R1
U 1 1 5A4F5062
P 6150 1200
F 0 "R1" V 6230 1200 50  0000 C CNN
F 1 "1k" V 6150 1200 50  0000 C CNN
F 2 "Resistors_THT:R_Axial_DIN0207_L6.3mm_D2.5mm_P7.62mm_Horizontal" V 6080 1200 50  0001 C CNN
F 3 "" H 6150 1200 50  0001 C CNN
	1    6150 1200
	1    0    0    -1  
$EndComp
Text Label 6150 850  0    60   ~ 0
CH1
$Comp
L R R4
U 1 1 5A4F569D
P 6150 2950
F 0 "R4" V 6230 2950 50  0000 C CNN
F 1 "2k" V 6150 2950 50  0000 C CNN
F 2 "Resistors_THT:R_Axial_DIN0207_L6.3mm_D2.5mm_P7.62mm_Horizontal" V 6080 2950 50  0001 C CNN
F 3 "" H 6150 2950 50  0001 C CNN
	1    6150 2950
	1    0    0    -1  
$EndComp
$Comp
L GND #PWR015
U 1 1 5A4F56A3
P 6150 3150
F 0 "#PWR015" H 6150 2900 50  0001 C CNN
F 1 "GND" H 6150 3000 50  0000 C CNN
F 2 "" H 6150 3150 50  0001 C CNN
F 3 "" H 6150 3150 50  0001 C CNN
	1    6150 3150
	1    0    0    -1  
$EndComp
$Comp
L R R3
U 1 1 5A4F56AA
P 6150 2500
F 0 "R3" V 6230 2500 50  0000 C CNN
F 1 "1k" V 6150 2500 50  0000 C CNN
F 2 "Resistors_THT:R_Axial_DIN0207_L6.3mm_D2.5mm_P7.62mm_Horizontal" V 6080 2500 50  0001 C CNN
F 3 "" H 6150 2500 50  0001 C CNN
	1    6150 2500
	1    0    0    -1  
$EndComp
Text Label 6150 2150 0    60   ~ 0
CH2
$Comp
L R R6
U 1 1 5A4F5A32
P 6150 4250
F 0 "R6" V 6230 4250 50  0000 C CNN
F 1 "2k" V 6150 4250 50  0000 C CNN
F 2 "Resistors_THT:R_Axial_DIN0207_L6.3mm_D2.5mm_P7.62mm_Horizontal" V 6080 4250 50  0001 C CNN
F 3 "" H 6150 4250 50  0001 C CNN
	1    6150 4250
	1    0    0    -1  
$EndComp
$Comp
L GND #PWR016
U 1 1 5A4F5A39
P 6150 4450
F 0 "#PWR016" H 6150 4200 50  0001 C CNN
F 1 "GND" H 6150 4300 50  0000 C CNN
F 2 "" H 6150 4450 50  0001 C CNN
F 3 "" H 6150 4450 50  0001 C CNN
	1    6150 4450
	1    0    0    -1  
$EndComp
Text Label 6250 4100 0    60   ~ 0
Due16
$Comp
L R R5
U 1 1 5A4F5A40
P 6150 3800
F 0 "R5" V 6230 3800 50  0000 C CNN
F 1 "1k" V 6150 3800 50  0000 C CNN
F 2 "Resistors_THT:R_Axial_DIN0207_L6.3mm_D2.5mm_P7.62mm_Horizontal" V 6080 3800 50  0001 C CNN
F 3 "" H 6150 3800 50  0001 C CNN
	1    6150 3800
	1    0    0    -1  
$EndComp
Text Label 6150 3450 0    60   ~ 0
PHOTO
$Comp
L R R10
U 1 1 5A4F659D
P 7350 1900
F 0 "R10" V 7430 1900 50  0000 C CNN
F 1 "2k" V 7350 1900 50  0000 C CNN
F 2 "Resistors_THT:R_Axial_DIN0207_L6.3mm_D2.5mm_P7.62mm_Horizontal" V 7280 1900 50  0001 C CNN
F 3 "" H 7350 1900 50  0001 C CNN
	1    7350 1900
	1    0    0    -1  
$EndComp
$Comp
L GND #PWR017
U 1 1 5A4F65A4
P 7350 2100
F 0 "#PWR017" H 7350 1850 50  0001 C CNN
F 1 "GND" H 7350 1950 50  0000 C CNN
F 2 "" H 7350 2100 50  0001 C CNN
F 3 "" H 7350 2100 50  0001 C CNN
	1    7350 2100
	1    0    0    -1  
$EndComp
Text Label 7450 1750 0    60   ~ 0
Due15
$Comp
L R R9
U 1 1 5A4F65AB
P 7350 1450
F 0 "R9" V 7430 1450 50  0000 C CNN
F 1 "1k" V 7350 1450 50  0000 C CNN
F 2 "Resistors_THT:R_Axial_DIN0207_L6.3mm_D2.5mm_P7.62mm_Horizontal" V 7280 1450 50  0001 C CNN
F 3 "" H 7350 1450 50  0001 C CNN
	1    7350 1450
	1    0    0    -1  
$EndComp
Text Label 7350 1100 0    60   ~ 0
Valve1
$Comp
L R R12
U 1 1 5A4F65C2
P 7350 3200
F 0 "R12" V 7430 3200 50  0000 C CNN
F 1 "2k" V 7350 3200 50  0000 C CNN
F 2 "Resistors_THT:R_Axial_DIN0207_L6.3mm_D2.5mm_P7.62mm_Horizontal" V 7280 3200 50  0001 C CNN
F 3 "" H 7350 3200 50  0001 C CNN
	1    7350 3200
	1    0    0    -1  
$EndComp
$Comp
L GND #PWR018
U 1 1 5A4F65C9
P 7350 3400
F 0 "#PWR018" H 7350 3150 50  0001 C CNN
F 1 "GND" H 7350 3250 50  0000 C CNN
F 2 "" H 7350 3400 50  0001 C CNN
F 3 "" H 7350 3400 50  0001 C CNN
	1    7350 3400
	1    0    0    -1  
$EndComp
Text Label 7450 3050 0    60   ~ 0
Due3
$Comp
L R R11
U 1 1 5A4F65D0
P 7350 2750
F 0 "R11" V 7430 2750 50  0000 C CNN
F 1 "1k" V 7350 2750 50  0000 C CNN
F 2 "Resistors_THT:R_Axial_DIN0207_L6.3mm_D2.5mm_P7.62mm_Horizontal" V 7280 2750 50  0001 C CNN
F 3 "" H 7350 2750 50  0001 C CNN
	1    7350 2750
	1    0    0    -1  
$EndComp
Text Label 7350 2400 0    60   ~ 0
LICK1
$Comp
L R R14
U 1 1 5A4F65E7
P 7350 4500
F 0 "R14" V 7430 4500 50  0000 C CNN
F 1 "2k" V 7350 4500 50  0000 C CNN
F 2 "Resistors_THT:R_Axial_DIN0207_L6.3mm_D2.5mm_P7.62mm_Horizontal" V 7280 4500 50  0001 C CNN
F 3 "" H 7350 4500 50  0001 C CNN
	1    7350 4500
	1    0    0    -1  
$EndComp
$Comp
L GND #PWR019
U 1 1 5A4F65EE
P 7350 4700
F 0 "#PWR019" H 7350 4450 50  0001 C CNN
F 1 "GND" H 7350 4550 50  0000 C CNN
F 2 "" H 7350 4700 50  0001 C CNN
F 3 "" H 7350 4700 50  0001 C CNN
	1    7350 4700
	1    0    0    -1  
$EndComp
Text Label 7450 4350 0    60   ~ 0
Due4
$Comp
L R R13
U 1 1 5A4F65F5
P 7350 4050
F 0 "R13" V 7430 4050 50  0000 C CNN
F 1 "1k" V 7350 4050 50  0000 C CNN
F 2 "Resistors_THT:R_Axial_DIN0207_L6.3mm_D2.5mm_P7.62mm_Horizontal" V 7280 4050 50  0001 C CNN
F 3 "" H 7350 4050 50  0001 C CNN
	1    7350 4050
	1    0    0    -1  
$EndComp
Text Label 7350 3700 0    60   ~ 0
LICK2
$Comp
L R R20
U 1 1 5A4F7DE0
P 8650 1650
F 0 "R20" V 8730 1650 50  0000 C CNN
F 1 "2k" V 8650 1650 50  0000 C CNN
F 2 "Resistors_THT:R_Axial_DIN0207_L6.3mm_D2.5mm_P7.62mm_Horizontal" V 8580 1650 50  0001 C CNN
F 3 "" H 8650 1650 50  0001 C CNN
	1    8650 1650
	1    0    0    -1  
$EndComp
$Comp
L GND #PWR020
U 1 1 5A4F7DE7
P 8650 1850
F 0 "#PWR020" H 8650 1600 50  0001 C CNN
F 1 "GND" H 8650 1700 50  0000 C CNN
F 2 "" H 8650 1850 50  0001 C CNN
F 3 "" H 8650 1850 50  0001 C CNN
	1    8650 1850
	1    0    0    -1  
$EndComp
Text Label 8750 1500 0    60   ~ 0
Due5
$Comp
L R R19
U 1 1 5A4F7DEE
P 8650 1200
F 0 "R19" V 8730 1200 50  0000 C CNN
F 1 "1k" V 8650 1200 50  0000 C CNN
F 2 "Resistors_THT:R_Axial_DIN0207_L6.3mm_D2.5mm_P7.62mm_Horizontal" V 8580 1200 50  0001 C CNN
F 3 "" H 8650 1200 50  0001 C CNN
	1    8650 1200
	1    0    0    -1  
$EndComp
Text Label 8650 850  0    60   ~ 0
GENERIC1
$Comp
L R R22
U 1 1 5A4F7E05
P 8650 2950
F 0 "R22" V 8730 2950 50  0000 C CNN
F 1 "2k" V 8650 2950 50  0000 C CNN
F 2 "Resistors_THT:R_Axial_DIN0207_L6.3mm_D2.5mm_P7.62mm_Horizontal" V 8580 2950 50  0001 C CNN
F 3 "" H 8650 2950 50  0001 C CNN
	1    8650 2950
	1    0    0    -1  
$EndComp
$Comp
L GND #PWR021
U 1 1 5A4F7E0C
P 8650 3150
F 0 "#PWR021" H 8650 2900 50  0001 C CNN
F 1 "GND" H 8650 3000 50  0000 C CNN
F 2 "" H 8650 3150 50  0001 C CNN
F 3 "" H 8650 3150 50  0001 C CNN
	1    8650 3150
	1    0    0    -1  
$EndComp
Text Label 8750 2800 0    60   ~ 0
Due6
$Comp
L R R21
U 1 1 5A4F7E13
P 8650 2500
F 0 "R21" V 8730 2500 50  0000 C CNN
F 1 "1k" V 8650 2500 50  0000 C CNN
F 2 "Resistors_THT:R_Axial_DIN0207_L6.3mm_D2.5mm_P7.62mm_Horizontal" V 8580 2500 50  0001 C CNN
F 3 "" H 8650 2500 50  0001 C CNN
	1    8650 2500
	1    0    0    -1  
$EndComp
Text Label 8650 2150 0    60   ~ 0
GENERIC2
$Comp
L R R24
U 1 1 5A4F7E2A
P 9500 4300
F 0 "R24" V 9580 4300 50  0000 C CNN
F 1 "2k" V 9500 4300 50  0000 C CNN
F 2 "Resistors_THT:R_Axial_DIN0207_L6.3mm_D2.5mm_P7.62mm_Horizontal" V 9430 4300 50  0001 C CNN
F 3 "" H 9500 4300 50  0001 C CNN
	1    9500 4300
	1    0    0    -1  
$EndComp
$Comp
L GND #PWR022
U 1 1 5A4F7E31
P 9500 4500
F 0 "#PWR022" H 9500 4250 50  0001 C CNN
F 1 "GND" H 9500 4350 50  0000 C CNN
F 2 "" H 9500 4500 50  0001 C CNN
F 3 "" H 9500 4500 50  0001 C CNN
	1    9500 4500
	1    0    0    -1  
$EndComp
Text Label 9600 4150 0    60   ~ 0
Due9
$Comp
L R R23
U 1 1 5A4F7E38
P 9500 3850
F 0 "R23" V 9580 3850 50  0000 C CNN
F 1 "1k" V 9500 3850 50  0000 C CNN
F 2 "Resistors_THT:R_Axial_DIN0207_L6.3mm_D2.5mm_P7.62mm_Horizontal" V 9430 3850 50  0001 C CNN
F 3 "" H 9500 3850 50  0001 C CNN
	1    9500 3850
	1    0    0    -1  
$EndComp
Text Label 9500 3500 0    60   ~ 0
IN1
$Comp
L R R28
U 1 1 5A4F7E4F
P 9500 1650
F 0 "R28" V 9580 1650 50  0000 C CNN
F 1 "2k" V 9500 1650 50  0000 C CNN
F 2 "Resistors_THT:R_Axial_DIN0207_L6.3mm_D2.5mm_P7.62mm_Horizontal" V 9430 1650 50  0001 C CNN
F 3 "" H 9500 1650 50  0001 C CNN
	1    9500 1650
	1    0    0    -1  
$EndComp
$Comp
L GND #PWR023
U 1 1 5A4F7E56
P 9500 1850
F 0 "#PWR023" H 9500 1600 50  0001 C CNN
F 1 "GND" H 9500 1700 50  0000 C CNN
F 2 "" H 9500 1850 50  0001 C CNN
F 3 "" H 9500 1850 50  0001 C CNN
	1    9500 1850
	1    0    0    -1  
$EndComp
Text Label 9600 1500 0    60   ~ 0
Due7
$Comp
L R R27
U 1 1 5A4F7E5D
P 9500 1200
F 0 "R27" V 9580 1200 50  0000 C CNN
F 1 "1k" V 9500 1200 50  0000 C CNN
F 2 "Resistors_THT:R_Axial_DIN0207_L6.3mm_D2.5mm_P7.62mm_Horizontal" V 9430 1200 50  0001 C CNN
F 3 "" H 9500 1200 50  0001 C CNN
	1    9500 1200
	1    0    0    -1  
$EndComp
Text Label 9500 850  0    60   ~ 0
Valve2
$Comp
L LED D2
U 1 1 5A4FC83A
P 4200 5700
F 0 "D2" H 4200 5800 50  0000 C CNN
F 1 "LED" H 4200 5600 50  0000 C CNN
F 2 "LEDs:LED_D3.0mm" H 4200 5700 50  0001 C CNN
F 3 "" H 4200 5700 50  0001 C CNN
	1    4200 5700
	0    1    1    0   
$EndComp
$Comp
L R R36
U 1 1 5A4FC841
P 4200 5350
F 0 "R36" V 4280 5350 50  0000 C CNN
F 1 "1k" V 4200 5350 50  0000 C CNN
F 2 "Resistors_THT:R_Axial_DIN0207_L6.3mm_D2.5mm_P7.62mm_Horizontal" V 4130 5350 50  0001 C CNN
F 3 "" H 4200 5350 50  0001 C CNN
	1    4200 5350
	1    0    0    -1  
$EndComp
$Comp
L LED D3
U 1 1 5A4FC9F7
P 4650 5700
F 0 "D3" H 4650 5800 50  0000 C CNN
F 1 "LED" H 4650 5600 50  0000 C CNN
F 2 "LEDs:LED_D3.0mm" H 4650 5700 50  0001 C CNN
F 3 "" H 4650 5700 50  0001 C CNN
	1    4650 5700
	0    1    1    0   
$EndComp
$Comp
L R R39
U 1 1 5A4FC9FE
P 4650 5350
F 0 "R39" V 4730 5350 50  0000 C CNN
F 1 "1k" V 4650 5350 50  0000 C CNN
F 2 "Resistors_THT:R_Axial_DIN0207_L6.3mm_D2.5mm_P7.62mm_Horizontal" V 4580 5350 50  0001 C CNN
F 3 "" H 4650 5350 50  0001 C CNN
	1    4650 5350
	1    0    0    -1  
$EndComp
$Comp
L LED D4
U 1 1 5A4FCEBC
P 5250 5700
F 0 "D4" H 5250 5800 50  0000 C CNN
F 1 "LED" H 5250 5600 50  0000 C CNN
F 2 "LEDs:LED_D3.0mm" H 5250 5700 50  0001 C CNN
F 3 "" H 5250 5700 50  0001 C CNN
	1    5250 5700
	0    1    1    0   
$EndComp
$Comp
L R R40
U 1 1 5A4FCEC3
P 5250 5350
F 0 "R40" V 5330 5350 50  0000 C CNN
F 1 "1k" V 5250 5350 50  0000 C CNN
F 2 "Resistors_THT:R_Axial_DIN0207_L6.3mm_D2.5mm_P7.62mm_Horizontal" V 5180 5350 50  0001 C CNN
F 3 "" H 5250 5350 50  0001 C CNN
	1    5250 5350
	1    0    0    -1  
$EndComp
$Comp
L LED D5
U 1 1 5A4FCED4
P 8800 5700
F 0 "D5" H 8800 5800 50  0000 C CNN
F 1 "LED" H 8800 5600 50  0000 C CNN
F 2 "LEDs:LED_D3.0mm" H 8800 5700 50  0001 C CNN
F 3 "" H 8800 5700 50  0001 C CNN
	1    8800 5700
	0    1    1    0   
$EndComp
$Comp
L R R43
U 1 1 5A4FCEDB
P 8800 5350
F 0 "R43" V 8880 5350 50  0000 C CNN
F 1 "1k" V 8800 5350 50  0000 C CNN
F 2 "Resistors_THT:R_Axial_DIN0207_L6.3mm_D2.5mm_P7.62mm_Horizontal" V 8730 5350 50  0001 C CNN
F 3 "" H 8800 5350 50  0001 C CNN
	1    8800 5350
	1    0    0    -1  
$EndComp
$Comp
L LED D6
U 1 1 5A4FCEEC
P 9350 5700
F 0 "D6" H 9350 5800 50  0000 C CNN
F 1 "LED" H 9350 5600 50  0000 C CNN
F 2 "LEDs:LED_D3.0mm" H 9350 5700 50  0001 C CNN
F 3 "" H 9350 5700 50  0001 C CNN
	1    9350 5700
	0    1    1    0   
$EndComp
$Comp
L R R44
U 1 1 5A4FCEF3
P 9350 5350
F 0 "R44" V 9430 5350 50  0000 C CNN
F 1 "1k" V 9350 5350 50  0000 C CNN
F 2 "Resistors_THT:R_Axial_DIN0207_L6.3mm_D2.5mm_P7.62mm_Horizontal" V 9280 5350 50  0001 C CNN
F 3 "" H 9350 5350 50  0001 C CNN
	1    9350 5350
	1    0    0    -1  
$EndComp
$Comp
L LED D7
U 1 1 5A4FD22B
P 6550 5700
F 0 "D7" H 6550 5800 50  0000 C CNN
F 1 "LED" H 6550 5600 50  0000 C CNN
F 2 "LEDs:LED_D3.0mm" H 6550 5700 50  0001 C CNN
F 3 "" H 6550 5700 50  0001 C CNN
	1    6550 5700
	0    1    1    0   
$EndComp
$Comp
L R R45
U 1 1 5A4FD232
P 6550 5350
F 0 "R45" V 6630 5350 50  0000 C CNN
F 1 "1k" V 6550 5350 50  0000 C CNN
F 2 "Resistors_THT:R_Axial_DIN0207_L6.3mm_D2.5mm_P7.62mm_Horizontal" V 6480 5350 50  0001 C CNN
F 3 "" H 6550 5350 50  0001 C CNN
	1    6550 5350
	1    0    0    -1  
$EndComp
$Comp
L LED D8
U 1 1 5A4FD243
P 5900 5700
F 0 "D8" H 5900 5800 50  0000 C CNN
F 1 "LED" H 5900 5600 50  0000 C CNN
F 2 "LEDs:LED_D3.0mm" H 5900 5700 50  0001 C CNN
F 3 "" H 5900 5700 50  0001 C CNN
	1    5900 5700
	0    1    1    0   
$EndComp
$Comp
L R R46
U 1 1 5A4FD24A
P 5900 5350
F 0 "R46" V 5980 5350 50  0000 C CNN
F 1 "1k" V 5900 5350 50  0000 C CNN
F 2 "Resistors_THT:R_Axial_DIN0207_L6.3mm_D2.5mm_P7.62mm_Horizontal" V 5830 5350 50  0001 C CNN
F 3 "" H 5900 5350 50  0001 C CNN
	1    5900 5350
	1    0    0    -1  
$EndComp
$Comp
L LED D9
U 1 1 5A4FD25B
P 8100 5700
F 0 "D9" H 8100 5800 50  0000 C CNN
F 1 "LED" H 8100 5600 50  0000 C CNN
F 2 "LEDs:LED_D3.0mm" H 8100 5700 50  0001 C CNN
F 3 "" H 8100 5700 50  0001 C CNN
	1    8100 5700
	0    1    1    0   
$EndComp
$Comp
L R R51
U 1 1 5A4FD262
P 8100 5350
F 0 "R51" V 8180 5350 50  0000 C CNN
F 1 "1k" V 8100 5350 50  0000 C CNN
F 2 "Resistors_THT:R_Axial_DIN0207_L6.3mm_D2.5mm_P7.62mm_Horizontal" V 8030 5350 50  0001 C CNN
F 3 "" H 8100 5350 50  0001 C CNN
	1    8100 5350
	1    0    0    -1  
$EndComp
Text Notes 4150 4900 0    60   ~ 12
LEDs (12 channels + 1 Out1)
Text Notes 5850 700  0    60   ~ 12
Channels
$Comp
L GND #PWR024
U 1 1 5A50999A
P 700 5400
F 0 "#PWR024" H 700 5150 50  0001 C CNN
F 1 "GND" H 700 5250 50  0000 C CNN
F 2 "" H 700 5400 50  0001 C CNN
F 3 "" H 700 5400 50  0001 C CNN
	1    700  5400
	0    1    -1   0   
$EndComp
$Comp
L GND #PWR025
U 1 1 5A5099A0
P 700 5300
F 0 "#PWR025" H 700 5050 50  0001 C CNN
F 1 "GND" H 700 5150 50  0000 C CNN
F 2 "" H 700 5300 50  0001 C CNN
F 3 "" H 700 5300 50  0001 C CNN
	1    700  5300
	0    1    -1   0   
$EndComp
Text Notes 700  6500 0    60   ~ 12
Wire-to-board connector
Text Notes 4400 1950 0    60   ~ 12
Hex inverters
$Comp
L Conn_Coaxial J2
U 1 1 5A514CD0
P 2850 6650
F 0 "J2" H 2860 6770 50  0000 C CNN
F 1 "Conn_Coaxial" V 2965 6650 50  0000 C CNN
F 2 "footprints:SMA_female" H 2850 6650 50  0001 C CNN
F 3 "" H 2850 6650 50  0001 C CNN
	1    2850 6650
	1    0    0    -1  
$EndComp
$Comp
L GND #PWR026
U 1 1 5A515172
P 2850 6900
F 0 "#PWR026" H 2850 6650 50  0001 C CNN
F 1 "GND" H 2850 6750 50  0000 C CNN
F 2 "" H 2850 6900 50  0001 C CNN
F 3 "" H 2850 6900 50  0001 C CNN
	1    2850 6900
	1    0    0    -1  
$EndComp
Text Notes 2400 6350 0    60   ~ 12
BNC plug (Out1)
Text Notes 600  1050 0    60   ~ 12
Shield Arduino Due
$Comp
L LED D10
U 1 1 5A5171D9
P 7300 5700
F 0 "D10" H 7300 5800 50  0000 C CNN
F 1 "LED" H 7300 5600 50  0000 C CNN
F 2 "LEDs:LED_D3.0mm" H 7300 5700 50  0001 C CNN
F 3 "" H 7300 5700 50  0001 C CNN
	1    7300 5700
	0    1    1    0   
$EndComp
$Comp
L R R52
U 1 1 5A5171E0
P 7300 5350
F 0 "R52" V 7380 5350 50  0000 C CNN
F 1 "1k" V 7300 5350 50  0000 C CNN
F 2 "Resistors_THT:R_Axial_DIN0207_L6.3mm_D2.5mm_P7.62mm_Horizontal" V 7230 5350 50  0001 C CNN
F 3 "" H 7300 5350 50  0001 C CNN
	1    7300 5350
	1    0    0    -1  
$EndComp
$Comp
L GND #PWR027
U 1 1 5A51809A
P 4250 2850
F 0 "#PWR027" H 4250 2600 50  0001 C CNN
F 1 "GND" H 4250 2700 50  0000 C CNN
F 2 "" H 4250 2850 50  0001 C CNN
F 3 "" H 4250 2850 50  0001 C CNN
	1    4250 2850
	0    1    1    0   
$EndComp
$Comp
L +5V #PWR028
U 1 1 5A5185D0
P 5050 2250
F 0 "#PWR028" H 5050 2100 50  0001 C CNN
F 1 "+5V" H 5050 2390 50  0000 C CNN
F 2 "" H 5050 2250 50  0001 C CNN
F 3 "" H 5050 2250 50  0001 C CNN
	1    5050 2250
	0    1    1    0   
$EndComp
$Comp
L +12V #PWR029
U 1 1 5A519BDF
P 700 5900
F 0 "#PWR029" H 700 5750 50  0001 C CNN
F 1 "+12V" H 700 6040 50  0000 C CNN
F 2 "" H 700 5900 50  0001 C CNN
F 3 "" H 700 5900 50  0001 C CNN
	1    700  5900
	0    -1   -1   0   
$EndComp
Text Label 2650 6650 3    60   ~ 0
Out1
Text Label 3750 5150 0    60   ~ 0
CH1_LED
Text Label 5250 5150 0    60   ~ 0
Valve1_LED
Text Label 4200 5150 0    60   ~ 0
CH2_LED
Text Label 4650 5150 0    60   ~ 0
PHOTO_LED
Text Label 8800 5150 0    60   ~ 0
LICK1_LED
Text Label 9350 5150 0    60   ~ 0
LICK2_LED
Text Label 6550 5150 0    60   ~ 0
GENERIC1_LED
Text Label 5900 5150 0    60   ~ 0
Valve2_LED
Text Label 8100 5150 0    60   ~ 0
GENERIC3_LED
Text Label 7300 5150 0    60   ~ 0
GENERIC2_LED
$Comp
L LED D12
U 1 1 5A5045EF
P 9900 5700
F 0 "D12" H 9900 5800 50  0000 C CNN
F 1 "LED" H 9900 5600 50  0000 C CNN
F 2 "LEDs:LED_D3.0mm" H 9900 5700 50  0001 C CNN
F 3 "" H 9900 5700 50  0001 C CNN
	1    9900 5700
	0    1    1    0   
$EndComp
$Comp
L R R56
U 1 1 5A5045F5
P 9900 5350
F 0 "R56" V 9980 5350 50  0000 C CNN
F 1 "1k" V 9900 5350 50  0000 C CNN
F 2 "Resistors_THT:R_Axial_DIN0207_L6.3mm_D2.5mm_P7.62mm_Horizontal" V 9830 5350 50  0001 C CNN
F 3 "" H 9900 5350 50  0001 C CNN
	1    9900 5350
	1    0    0    -1  
$EndComp
Text Label 9900 5150 0    60   ~ 0
Out1_LED
Text Label 4250 2350 2    60   ~ 0
CH1_LED
Text Label 4250 2550 2    60   ~ 0
CH2_LED
Text Label 4250 2750 2    60   ~ 0
PHOTO_LED
Text Label 5050 2450 0    60   ~ 0
GENERIC3_LED
Text Label 5050 2650 0    60   ~ 0
Valve2_LED
Text Label 5050 2850 0    60   ~ 0
Valve1_LED
Text Label 4250 2250 2    60   ~ 0
CH1
Text Label 4250 2450 2    60   ~ 0
CH2
Text Label 4250 2650 2    60   ~ 0
PHOTO
Text Label 5050 2350 0    60   ~ 0
GENERIC3
Text Label 5050 2550 0    60   ~ 0
Valve2
Text Label 5050 2750 0    60   ~ 0
Valve1
$Comp
L MM74HCT05N U2
U 1 1 5A5059C7
P 4650 3750
F 0 "U2" H 4650 3300 60  0000 C CNN
F 1 "MM74HCT05N" H 4650 4200 60  0000 C CNN
F 2 "footprints:MM74HCT05N" H 4450 3900 60  0001 C CNN
F 3 "" H 4450 3900 60  0001 C CNN
	1    4650 3750
	1    0    0    -1  
$EndComp
$Comp
L GND #PWR030
U 1 1 5A5059CD
P 4250 4050
F 0 "#PWR030" H 4250 3800 50  0001 C CNN
F 1 "GND" H 4250 3900 50  0000 C CNN
F 2 "" H 4250 4050 50  0001 C CNN
F 3 "" H 4250 4050 50  0001 C CNN
	1    4250 4050
	0    1    1    0   
$EndComp
$Comp
L +5V #PWR031
U 1 1 5A5059D3
P 5050 3450
F 0 "#PWR031" H 5050 3300 50  0001 C CNN
F 1 "+5V" H 5050 3590 50  0000 C CNN
F 2 "" H 5050 3450 50  0001 C CNN
F 3 "" H 5050 3450 50  0001 C CNN
	1    5050 3450
	0    1    1    0   
$EndComp
Text Label 4250 3550 2    60   ~ 0
LICK1_LED
Text Label 4250 3750 2    60   ~ 0
LICK2_LED
Text Label 4250 3950 2    60   ~ 0
GENERIC1_LED
Text Label 5050 4050 0    60   ~ 0
GENERIC2_LED
Text Label 4250 3450 2    60   ~ 0
LICK1
Text Label 4250 3650 2    60   ~ 0
LICK2
Text Label 4250 3850 2    60   ~ 0
GENERIC1
Text Label 5050 3750 0    60   ~ 0
IN1
Text Label 5050 3950 0    60   ~ 0
GENERIC2
$Comp
L +5V #PWR032
U 1 1 5A517CD7
P 3750 6000
F 0 "#PWR032" H 3750 5850 50  0001 C CNN
F 1 "+5V" H 3750 6140 50  0000 C CNN
F 2 "" H 3750 6000 50  0001 C CNN
F 3 "" H 3750 6000 50  0001 C CNN
	1    3750 6000
	-1   0    0    1   
$EndComp
$Comp
L +5V #PWR033
U 1 1 5A517DED
P 4650 6000
F 0 "#PWR033" H 4650 5850 50  0001 C CNN
F 1 "+5V" H 4650 6140 50  0000 C CNN
F 2 "" H 4650 6000 50  0001 C CNN
F 3 "" H 4650 6000 50  0001 C CNN
	1    4650 6000
	-1   0    0    1   
$EndComp
$Comp
L +5V #PWR034
U 1 1 5A517F51
P 8800 6000
F 0 "#PWR034" H 8800 5850 50  0001 C CNN
F 1 "+5V" H 8800 6140 50  0000 C CNN
F 2 "" H 8800 6000 50  0001 C CNN
F 3 "" H 8800 6000 50  0001 C CNN
	1    8800 6000
	-1   0    0    1   
$EndComp
$Comp
L +5V #PWR035
U 1 1 5A517F57
P 6550 6000
F 0 "#PWR035" H 6550 5850 50  0001 C CNN
F 1 "+5V" H 6550 6140 50  0000 C CNN
F 2 "" H 6550 6000 50  0001 C CNN
F 3 "" H 6550 6000 50  0001 C CNN
	1    6550 6000
	-1   0    0    1   
$EndComp
$Comp
L +5V #PWR036
U 1 1 5A517FB2
P 8100 6000
F 0 "#PWR036" H 8100 5850 50  0001 C CNN
F 1 "+5V" H 8100 6140 50  0000 C CNN
F 2 "" H 8100 6000 50  0001 C CNN
F 3 "" H 8100 6000 50  0001 C CNN
	1    8100 6000
	-1   0    0    1   
$EndComp
$Comp
L +5V #PWR037
U 1 1 5A517FB8
P 9900 6000
F 0 "#PWR037" H 9900 5850 50  0001 C CNN
F 1 "+5V" H 9900 6140 50  0000 C CNN
F 2 "" H 9900 6000 50  0001 C CNN
F 3 "" H 9900 6000 50  0001 C CNN
	1    9900 6000
	-1   0    0    1   
$EndComp
$Comp
L +5V #PWR038
U 1 1 5A518086
P 4200 6000
F 0 "#PWR038" H 4200 5850 50  0001 C CNN
F 1 "+5V" H 4200 6140 50  0000 C CNN
F 2 "" H 4200 6000 50  0001 C CNN
F 3 "" H 4200 6000 50  0001 C CNN
	1    4200 6000
	-1   0    0    1   
$EndComp
$Comp
L +5V #PWR039
U 1 1 5A51808C
P 5250 6000
F 0 "#PWR039" H 5250 5850 50  0001 C CNN
F 1 "+5V" H 5250 6140 50  0000 C CNN
F 2 "" H 5250 6000 50  0001 C CNN
F 3 "" H 5250 6000 50  0001 C CNN
	1    5250 6000
	-1   0    0    1   
$EndComp
$Comp
L +5V #PWR040
U 1 1 5A518092
P 9350 6000
F 0 "#PWR040" H 9350 5850 50  0001 C CNN
F 1 "+5V" H 9350 6140 50  0000 C CNN
F 2 "" H 9350 6000 50  0001 C CNN
F 3 "" H 9350 6000 50  0001 C CNN
	1    9350 6000
	-1   0    0    1   
$EndComp
$Comp
L +5V #PWR041
U 1 1 5A518098
P 5900 6000
F 0 "#PWR041" H 5900 5850 50  0001 C CNN
F 1 "+5V" H 5900 6140 50  0000 C CNN
F 2 "" H 5900 6000 50  0001 C CNN
F 3 "" H 5900 6000 50  0001 C CNN
	1    5900 6000
	-1   0    0    1   
$EndComp
$Comp
L +5V #PWR042
U 1 1 5A51809E
P 7300 6000
F 0 "#PWR042" H 7300 5850 50  0001 C CNN
F 1 "+5V" H 7300 6140 50  0000 C CNN
F 2 "" H 7300 6000 50  0001 C CNN
F 3 "" H 7300 6000 50  0001 C CNN
	1    7300 6000
	-1   0    0    1   
$EndComp
$Comp
L +5V #PWR043
U 1 1 5A5180A4
P 10600 6000
F 0 "#PWR043" H 10600 5850 50  0001 C CNN
F 1 "+5V" H 10600 6140 50  0000 C CNN
F 2 "" H 10600 6000 50  0001 C CNN
F 3 "" H 10600 6000 50  0001 C CNN
	1    10600 6000
	-1   0    0    1   
$EndComp
$Comp
L LED D11
U 1 1 5A519064
P 10600 5700
F 0 "D11" H 10600 5800 50  0000 C CNN
F 1 "LED" H 10600 5600 50  0000 C CNN
F 2 "LEDs:LED_D3.0mm" H 10600 5700 50  0001 C CNN
F 3 "" H 10600 5700 50  0001 C CNN
	1    10600 5700
	0    1    1    0   
$EndComp
$Comp
L R R55
U 1 1 5A51906B
P 10600 5350
F 0 "R55" V 10680 5350 50  0000 C CNN
F 1 "1k" V 10600 5350 50  0000 C CNN
F 2 "Resistors_THT:R_Axial_DIN0207_L6.3mm_D2.5mm_P7.62mm_Horizontal" V 10530 5350 50  0001 C CNN
F 3 "" H 10600 5350 50  0001 C CNN
	1    10600 5350
	1    0    0    -1  
$EndComp
Text Label 10600 5150 0    60   ~ 0
IN1_LED
Text Label 5050 3550 0    60   ~ 0
Out1
Text Label 5050 3650 0    60   ~ 0
Out1_LED
Text Label 3750 6650 3    60   ~ 0
IN1
Text Notes 3600 6450 0    60   ~ 12
Imaging
$Comp
L GND #PWR044
U 1 1 5A52610F
P 1050 7300
F 0 "#PWR044" H 1050 7050 50  0001 C CNN
F 1 "GND" H 1050 7150 50  0000 C CNN
F 2 "" H 1050 7300 50  0001 C CNN
F 3 "" H 1050 7300 50  0001 C CNN
	1    1050 7300
	0    1    1    0   
$EndComp
$Comp
L GND #PWR045
U 1 1 5A5261CF
P 1050 7400
F 0 "#PWR045" H 1050 7150 50  0001 C CNN
F 1 "GND" H 1050 7250 50  0000 C CNN
F 2 "" H 1050 7400 50  0001 C CNN
F 3 "" H 1050 7400 50  0001 C CNN
	1    1050 7400
	0    1    1    0   
$EndComp
NoConn ~ 700  5800
NoConn ~ 700  5700
NoConn ~ 700  5500
NoConn ~ 700  4800
NoConn ~ 700  4700
NoConn ~ 700  4500
NoConn ~ 700  2700
NoConn ~ 700  2600
NoConn ~ 700  2500
NoConn ~ 700  2400
NoConn ~ 3300 5500
NoConn ~ 3300 5700
NoConn ~ 3300 5900
Wire Wire Line
	5000 6700 5000 6800
Wire Wire Line
	5750 6800 5750 6900
Wire Wire Line
	6200 6800 6200 6900
Connection ~ 6250 1500
Connection ~ 6150 1500
Wire Wire Line
	6150 1350 6150 1500
Connection ~ 6150 900 
Wire Wire Line
	3750 5500 3750 5550
Wire Wire Line
	6150 1800 6150 1850
Wire Wire Line
	6150 850  6150 1050
Wire Wire Line
	3750 5200 3750 5150
Connection ~ 6250 2800
Connection ~ 6150 2800
Wire Wire Line
	6150 2650 6150 2800
Connection ~ 6150 2200
Wire Wire Line
	6150 3100 6150 3150
Wire Wire Line
	6150 2150 6150 2350
Connection ~ 6250 4100
Connection ~ 6150 4100
Wire Wire Line
	6150 3950 6150 4100
Connection ~ 6150 3500
Wire Wire Line
	6150 4400 6150 4450
Wire Wire Line
	6150 3450 6150 3650
Connection ~ 7450 1750
Connection ~ 7350 1750
Wire Wire Line
	7350 1600 7350 1750
Connection ~ 7350 1150
Wire Wire Line
	7350 2050 7350 2100
Wire Wire Line
	7350 1100 7350 1300
Connection ~ 7450 3050
Connection ~ 7350 3050
Wire Wire Line
	7350 2900 7350 3050
Connection ~ 7350 2450
Wire Wire Line
	7350 3350 7350 3400
Wire Wire Line
	7350 2400 7350 2600
Connection ~ 7450 4350
Connection ~ 7350 4350
Wire Wire Line
	7350 4200 7350 4350
Connection ~ 7350 3750
Wire Wire Line
	7350 4650 7350 4700
Wire Wire Line
	7350 3700 7350 3900
Connection ~ 8750 1500
Connection ~ 8650 1500
Wire Wire Line
	8650 1350 8650 1500
Connection ~ 8650 900 
Wire Wire Line
	8650 1800 8650 1850
Wire Wire Line
	8650 850  8650 1050
Connection ~ 8750 2800
Connection ~ 8650 2800
Wire Wire Line
	8650 2650 8650 2800
Connection ~ 8650 2200
Wire Wire Line
	8650 3100 8650 3150
Wire Wire Line
	8650 2150 8650 2350
Connection ~ 9600 4150
Connection ~ 9500 4150
Wire Wire Line
	9500 4000 9500 4150
Connection ~ 9500 3550
Wire Wire Line
	9500 4450 9500 4500
Wire Wire Line
	9500 3500 9500 3700
Connection ~ 9600 1500
Connection ~ 9500 1500
Wire Wire Line
	9500 1350 9500 1500
Connection ~ 9500 900 
Wire Wire Line
	9500 1800 9500 1850
Wire Wire Line
	9500 850  9500 1050
Wire Wire Line
	4200 5500 4200 5550
Wire Wire Line
	4200 5200 4200 5150
Wire Wire Line
	4650 5500 4650 5550
Wire Wire Line
	4650 5200 4650 5150
Wire Wire Line
	5250 5500 5250 5550
Wire Wire Line
	5250 5200 5250 5150
Wire Wire Line
	8800 5500 8800 5550
Wire Wire Line
	8800 5200 8800 5150
Wire Wire Line
	9350 5500 9350 5550
Wire Wire Line
	9350 5200 9350 5150
Wire Wire Line
	6550 5500 6550 5550
Wire Wire Line
	6550 5200 6550 5150
Wire Wire Line
	5900 5500 5900 5550
Wire Wire Line
	5900 5200 5900 5150
Wire Wire Line
	8100 5500 8100 5550
Wire Wire Line
	8100 5200 8100 5150
Wire Wire Line
	2850 6850 2850 6900
Wire Wire Line
	2700 6650 2650 6650
Wire Wire Line
	7300 5500 7300 5550
Wire Wire Line
	7300 5200 7300 5150
Wire Wire Line
	1900 6800 2100 6800
Wire Wire Line
	1900 6900 1950 6900
Wire Wire Line
	9900 5500 9900 5550
Wire Wire Line
	3750 5850 3750 6000
Wire Wire Line
	4650 5850 4650 6000
Wire Wire Line
	8800 5850 8800 6000
Wire Wire Line
	6550 5850 6550 6000
Wire Wire Line
	8100 5850 8100 6000
Wire Wire Line
	9900 5850 9900 6000
Wire Wire Line
	4200 5850 4200 6000
Wire Wire Line
	5250 5850 5250 6000
Wire Wire Line
	9350 5850 9350 6000
Wire Wire Line
	5900 5850 5900 6000
Wire Wire Line
	7300 5850 7300 6000
Wire Wire Line
	10600 5500 10600 5550
Wire Wire Line
	10600 5200 10600 5150
Wire Wire Line
	10600 5850 10600 6000
Wire Wire Line
	9900 5200 9900 5150
Text Label 5050 3850 0    60   ~ 0
IN1_LED
NoConn ~ 3300 2900
NoConn ~ 3300 3100
NoConn ~ 3300 3300
NoConn ~ 3300 3500
NoConn ~ 3300 3700
NoConn ~ 3300 3900
NoConn ~ 3300 4100
NoConn ~ 3300 4300
NoConn ~ 3300 4500
NoConn ~ 3300 4700
NoConn ~ 3300 4900
NoConn ~ 3300 5100
NoConn ~ 3300 5300
$Comp
L conn_idc_16 U3
U 1 1 5A4FB0B0
P 1500 7050
F 0 "U3" H 1450 6600 60  0000 C CNN
F 1 "conn_idc_16" H 1500 7500 60  0000 C CNN
F 2 "idc_16:conn_idc_16" H 1500 7500 60  0001 C CNN
F 3 "" H 1500 7500 60  0001 C CNN
	1    1500 7050
	1    0    0    -1  
$EndComp
$Comp
L R R8
U 1 1 5A5377D1
P 10600 1750
F 0 "R8" V 10680 1750 50  0000 C CNN
F 1 "2k" V 10600 1750 50  0000 C CNN
F 2 "Resistors_THT:R_Axial_DIN0207_L6.3mm_D2.5mm_P7.62mm_Horizontal" V 10530 1750 50  0001 C CNN
F 3 "" H 10600 1750 50  0001 C CNN
	1    10600 1750
	1    0    0    -1  
$EndComp
$Comp
L GND #PWR046
U 1 1 5A5377D7
P 10600 1950
F 0 "#PWR046" H 10600 1700 50  0001 C CNN
F 1 "GND" H 10600 1800 50  0000 C CNN
F 2 "" H 10600 1950 50  0001 C CNN
F 3 "" H 10600 1950 50  0001 C CNN
	1    10600 1950
	1    0    0    -1  
$EndComp
Text Label 10700 1600 0    60   ~ 0
Due10
$Comp
L R R7
U 1 1 5A5377DE
P 10600 1300
F 0 "R7" V 10680 1300 50  0000 C CNN
F 1 "1k" V 10600 1300 50  0000 C CNN
F 2 "Resistors_THT:R_Axial_DIN0207_L6.3mm_D2.5mm_P7.62mm_Horizontal" V 10530 1300 50  0001 C CNN
F 3 "" H 10600 1300 50  0001 C CNN
	1    10600 1300
	1    0    0    -1  
$EndComp
Text Label 10600 950  0    60   ~ 0
IN2
$Comp
L R R16
U 1 1 5A5377E5
P 10600 3050
F 0 "R16" V 10680 3050 50  0000 C CNN
F 1 "2k" V 10600 3050 50  0000 C CNN
F 2 "Resistors_THT:R_Axial_DIN0207_L6.3mm_D2.5mm_P7.62mm_Horizontal" V 10530 3050 50  0001 C CNN
F 3 "" H 10600 3050 50  0001 C CNN
	1    10600 3050
	1    0    0    -1  
$EndComp
$Comp
L GND #PWR047
U 1 1 5A5377EB
P 10600 3250
F 0 "#PWR047" H 10600 3000 50  0001 C CNN
F 1 "GND" H 10600 3100 50  0000 C CNN
F 2 "" H 10600 3250 50  0001 C CNN
F 3 "" H 10600 3250 50  0001 C CNN
	1    10600 3250
	1    0    0    -1  
$EndComp
Text Label 10700 2900 0    60   ~ 0
Due11
$Comp
L R R15
U 1 1 5A5377F2
P 10600 2600
F 0 "R15" V 10680 2600 50  0000 C CNN
F 1 "1k" V 10600 2600 50  0000 C CNN
F 2 "Resistors_THT:R_Axial_DIN0207_L6.3mm_D2.5mm_P7.62mm_Horizontal" V 10530 2600 50  0001 C CNN
F 3 "" H 10600 2600 50  0001 C CNN
	1    10600 2600
	1    0    0    -1  
$EndComp
Text Label 10600 2250 0    60   ~ 0
IN3
$Comp
L R R18
U 1 1 5A5377F9
P 10600 4350
F 0 "R18" V 10680 4350 50  0000 C CNN
F 1 "2k" V 10600 4350 50  0000 C CNN
F 2 "Resistors_THT:R_Axial_DIN0207_L6.3mm_D2.5mm_P7.62mm_Horizontal" V 10530 4350 50  0001 C CNN
F 3 "" H 10600 4350 50  0001 C CNN
	1    10600 4350
	1    0    0    -1  
$EndComp
$Comp
L GND #PWR048
U 1 1 5A5377FF
P 10600 4550
F 0 "#PWR048" H 10600 4300 50  0001 C CNN
F 1 "GND" H 10600 4400 50  0000 C CNN
F 2 "" H 10600 4550 50  0001 C CNN
F 3 "" H 10600 4550 50  0001 C CNN
	1    10600 4550
	1    0    0    -1  
$EndComp
Text Label 10700 4200 0    60   ~ 0
Due12
$Comp
L R R17
U 1 1 5A537806
P 10600 3900
F 0 "R17" V 10680 3900 50  0000 C CNN
F 1 "1k" V 10600 3900 50  0000 C CNN
F 2 "Resistors_THT:R_Axial_DIN0207_L6.3mm_D2.5mm_P7.62mm_Horizontal" V 10530 3900 50  0001 C CNN
F 3 "" H 10600 3900 50  0001 C CNN
	1    10600 3900
	1    0    0    -1  
$EndComp
Text Label 10600 3550 0    60   ~ 0
IN4
Connection ~ 10700 1600
Connection ~ 10600 1600
Wire Wire Line
	10600 1450 10600 1600
Wire Wire Line
	10600 1900 10600 1950
Connection ~ 10700 2900
Connection ~ 10600 2900
Wire Wire Line
	10600 2750 10600 2900
Wire Wire Line
	10600 3200 10600 3250
Connection ~ 10700 4200
Connection ~ 10600 4200
Wire Wire Line
	10600 4050 10600 4200
Wire Wire Line
	10600 4500 10600 4550
Wire Wire Line
	10600 1600 10700 1600
Wire Wire Line
	10600 2900 10700 2900
Wire Wire Line
	10600 4200 10700 4200
Wire Wire Line
	10600 1150 10600 950 
Wire Wire Line
	10600 2450 10600 2250
Wire Wire Line
	10600 3750 10600 3550
Text Label 4750 7300 3    60   ~ 0
IN4
Text Label 4300 7300 3    60   ~ 0
IN3
Text Label 3850 7300 3    60   ~ 0
IN2
NoConn ~ 3300 5000
Wire Wire Line
	6150 1500 6250 1500
Wire Wire Line
	6150 2800 6250 2800
Wire Wire Line
	6150 4100 6250 4100
Wire Wire Line
	7350 1750 7450 1750
Wire Wire Line
	7350 3050 7450 3050
Wire Wire Line
	7350 4350 7450 4350
Wire Wire Line
	8650 1500 8750 1500
Wire Wire Line
	8650 2800 8750 2800
Wire Wire Line
	9500 4150 9600 4150
Wire Wire Line
	9500 1500 9600 1500
Text Label 6250 2800 0    60   ~ 0
Due17
Text Label 700  2100 2    60   ~ 0
Due16
Text Label 700  2200 2    60   ~ 0
Due15
Text Label 700  2300 2    60   ~ 0
Due14
Text Label 3300 1700 0    60   ~ 0
Due3
Text Label 3300 1800 0    60   ~ 0
Due4
Text Label 3300 1900 0    60   ~ 0
Due5
Text Label 3300 2000 0    60   ~ 0
Due6
Text Label 3300 2100 0    60   ~ 0
Due7
NoConn ~ 3300 3000
NoConn ~ 3300 2800
NoConn ~ 3300 3200
NoConn ~ 3300 3400
NoConn ~ 3300 3600
NoConn ~ 3300 3800
NoConn ~ 3300 4000
NoConn ~ 3300 4200
NoConn ~ 3300 4400
NoConn ~ 3300 4600
NoConn ~ 3300 4800
NoConn ~ 3300 5200
NoConn ~ 3300 5400
NoConn ~ 3300 5600
NoConn ~ 3300 5800
Text Label 3300 2400 0    60   ~ 0
Due10
Text Label 3300 2500 0    60   ~ 0
Due11
Text Label 3300 2600 0    60   ~ 0
Due12
Text Label 3300 2700 0    60   ~ 0
Out1
NoConn ~ 700  1600
NoConn ~ 700  1700
Text Label 700  2000 2    60   ~ 0
Due17
Text Label 3300 2200 0    60   ~ 0
Due8
Text Label 3300 2300 0    60   ~ 0
Due9
NoConn ~ 700  2800
NoConn ~ 700  2900
NoConn ~ 700  3100
NoConn ~ 700  3200
NoConn ~ 700  4000
NoConn ~ 700  4100
NoConn ~ 700  4200
NoConn ~ 700  4300
NoConn ~ 700  4400
NoConn ~ -1050 5150
NoConn ~ 700  3900
$Comp
L Arduino_Due_Shield_2 ARD1
U 1 1 5A549F4F
P 2000 3750
F 0 "ARD1" V 2100 3750 60  0000 C CNN
F 1 "Arduino_Due_Shield_2" V 1900 3750 60  0000 C CNN
F 2 "footprints:Arduino_Due_Shield_2" H 2700 6500 60  0001 C CNN
F 3 "" H 2700 6500 60  0001 C CNN
	1    2000 3750
	1    0    0    -1  
$EndComp
NoConn ~ 700  3300
NoConn ~ 700  3400
NoConn ~ 700  3500
NoConn ~ 700  3600
NoConn ~ 700  3700
NoConn ~ 700  3800
$Comp
L Conn_Coaxial J3
U 1 1 5A54FCB9
P 3900 6650
F 0 "J3" H 3910 6770 50  0000 C CNN
F 1 "Conn_Coaxial" V 4015 6650 50  0000 C CNN
F 2 "footprints:SMA_female" H 3900 6650 50  0001 C CNN
F 3 "" H 3900 6650 50  0001 C CNN
	1    3900 6650
	1    0    0    -1  
$EndComp
$Comp
L Conn_Coaxial J4
U 1 1 5A54FDBE
P 4000 7300
F 0 "J4" H 4010 7420 50  0000 C CNN
F 1 "Conn_Coaxial" V 4115 7300 50  0000 C CNN
F 2 "footprints:SMA_female" H 4000 7300 50  0001 C CNN
F 3 "" H 4000 7300 50  0001 C CNN
	1    4000 7300
	1    0    0    -1  
$EndComp
$Comp
L Conn_Coaxial J5
U 1 1 5A54FE8A
P 4450 7300
F 0 "J5" H 4460 7420 50  0000 C CNN
F 1 "Conn_Coaxial" V 4565 7300 50  0000 C CNN
F 2 "footprints:SMA_female" H 4450 7300 50  0001 C CNN
F 3 "" H 4450 7300 50  0001 C CNN
	1    4450 7300
	1    0    0    -1  
$EndComp
$Comp
L Conn_Coaxial J6
U 1 1 5A54FF6D
P 4900 7300
F 0 "J6" H 4910 7420 50  0000 C CNN
F 1 "Conn_Coaxial" V 5015 7300 50  0000 C CNN
F 2 "footprints:SMA_female" H 4900 7300 50  0001 C CNN
F 3 "" H 4900 7300 50  0001 C CNN
	1    4900 7300
	1    0    0    -1  
$EndComp
$Comp
L GND #PWR049
U 1 1 5A5500D7
P 3900 6950
F 0 "#PWR049" H 3900 6700 50  0001 C CNN
F 1 "GND" H 3900 6800 50  0000 C CNN
F 2 "" H 3900 6950 50  0001 C CNN
F 3 "" H 3900 6950 50  0001 C CNN
	1    3900 6950
	1    0    0    -1  
$EndComp
$Comp
L GND #PWR050
U 1 1 5A5501A8
P 4000 7600
F 0 "#PWR050" H 4000 7350 50  0001 C CNN
F 1 "GND" H 4000 7450 50  0000 C CNN
F 2 "" H 4000 7600 50  0001 C CNN
F 3 "" H 4000 7600 50  0001 C CNN
	1    4000 7600
	1    0    0    -1  
$EndComp
$Comp
L GND #PWR051
U 1 1 5A550279
P 4450 7600
F 0 "#PWR051" H 4450 7350 50  0001 C CNN
F 1 "GND" H 4450 7450 50  0000 C CNN
F 2 "" H 4450 7600 50  0001 C CNN
F 3 "" H 4450 7600 50  0001 C CNN
	1    4450 7600
	1    0    0    -1  
$EndComp
$Comp
L GND #PWR052
U 1 1 5A55034A
P 4900 7600
F 0 "#PWR052" H 4900 7350 50  0001 C CNN
F 1 "GND" H 4900 7450 50  0000 C CNN
F 2 "" H 4900 7600 50  0001 C CNN
F 3 "" H 4900 7600 50  0001 C CNN
	1    4900 7600
	1    0    0    -1  
$EndComp
Wire Wire Line
	3900 6850 3900 6950
Wire Wire Line
	4000 7500 4000 7600
Wire Wire Line
	4450 7500 4450 7600
Wire Wire Line
	4900 7500 4900 7600
$Comp
L Conn_Coaxial J7
U 1 1 5A551505
P 5250 6750
F 0 "J7" H 5260 6870 50  0000 C CNN
F 1 "Conn_Coaxial" V 5365 6750 50  0000 C CNN
F 2 "footprints:SMA_female" H 5250 6750 50  0001 C CNN
F 3 "" H 5250 6750 50  0001 C CNN
	1    5250 6750
	1    0    0    -1  
$EndComp
$Comp
L GND #PWR053
U 1 1 5A551658
P 5250 7050
F 0 "#PWR053" H 5250 6800 50  0001 C CNN
F 1 "GND" H 5250 6900 50  0000 C CNN
F 2 "" H 5250 7050 50  0001 C CNN
F 3 "" H 5250 7050 50  0001 C CNN
	1    5250 7050
	1    0    0    -1  
$EndComp
Wire Wire Line
	5250 6950 5250 7050
Connection ~ 5000 6750
$Comp
L Conn_Coaxial J1
U 1 1 5A551E8A
P 3150 7300
F 0 "J1" H 3160 7420 50  0000 C CNN
F 1 "Conn_Coaxial" V 3265 7300 50  0000 C CNN
F 2 "footprints:SMA_female" H 3150 7300 50  0001 C CNN
F 3 "" H 3150 7300 50  0001 C CNN
	1    3150 7300
	1    0    0    -1  
$EndComp
$Comp
L GND #PWR054
U 1 1 5A551E90
P 3150 7550
F 0 "#PWR054" H 3150 7300 50  0001 C CNN
F 1 "GND" H 3150 7400 50  0000 C CNN
F 2 "" H 3150 7550 50  0001 C CNN
F 3 "" H 3150 7550 50  0001 C CNN
	1    3150 7550
	1    0    0    -1  
$EndComp
Text Label 2950 7300 3    60   ~ 0
Out2
Wire Wire Line
	3150 7500 3150 7550
Wire Wire Line
	3000 7300 2950 7300
Text Label 3300 1600 0    60   ~ 0
Out2
Text Notes 2600 7150 0    60   ~ 0
Other output
$Comp
L R R26
U 1 1 5A5DCA0A
P 8650 4350
F 0 "R26" V 8730 4350 50  0000 C CNN
F 1 "2k" V 8650 4350 50  0000 C CNN
F 2 "Resistors_THT:R_Axial_DIN0207_L6.3mm_D2.5mm_P7.62mm_Horizontal" V 8580 4350 50  0001 C CNN
F 3 "" H 8650 4350 50  0001 C CNN
	1    8650 4350
	1    0    0    -1  
$EndComp
$Comp
L GND #PWR055
U 1 1 5A5DCA10
P 8650 4550
F 0 "#PWR055" H 8650 4300 50  0001 C CNN
F 1 "GND" H 8650 4400 50  0000 C CNN
F 2 "" H 8650 4550 50  0001 C CNN
F 3 "" H 8650 4550 50  0001 C CNN
	1    8650 4550
	1    0    0    -1  
$EndComp
Text Label 8750 4200 0    60   ~ 0
Due14
$Comp
L R R25
U 1 1 5A5DCA17
P 8650 3900
F 0 "R25" V 8730 3900 50  0000 C CNN
F 1 "1k" V 8650 3900 50  0000 C CNN
F 2 "Resistors_THT:R_Axial_DIN0207_L6.3mm_D2.5mm_P7.62mm_Horizontal" V 8580 3900 50  0001 C CNN
F 3 "" H 8650 3900 50  0001 C CNN
	1    8650 3900
	1    0    0    -1  
$EndComp
Text Label 8650 3550 0    60   ~ 0
GENERIC3
Connection ~ 8750 4200
Connection ~ 8650 4200
Wire Wire Line
	8650 4050 8650 4200
Connection ~ 8650 3600
Wire Wire Line
	8650 4500 8650 4550
Wire Wire Line
	8650 3550 8650 3750
Wire Wire Line
	8650 4200 8750 4200
Text Label 1050 7200 2    60   ~ 0
GENERIC4
Text Label 700  1900 2    60   ~ 0
Due18
Wire Wire Line
	5000 6750 5100 6750
$Comp
L R R30
U 1 1 5A622537
P 11850 4250
F 0 "R30" V 11930 4250 50  0000 C CNN
F 1 "2k" V 11850 4250 50  0000 C CNN
F 2 "Resistors_THT:R_Axial_DIN0207_L6.3mm_D2.5mm_P7.62mm_Horizontal" V 11780 4250 50  0001 C CNN
F 3 "" H 11850 4250 50  0001 C CNN
	1    11850 4250
	1    0    0    -1  
$EndComp
$Comp
L GND #PWR056
U 1 1 5A62253D
P 11850 4450
F 0 "#PWR056" H 11850 4200 50  0001 C CNN
F 1 "GND" H 11850 4300 50  0000 C CNN
F 2 "" H 11850 4450 50  0001 C CNN
F 3 "" H 11850 4450 50  0001 C CNN
	1    11850 4450
	1    0    0    -1  
$EndComp
Text Label 11950 4100 0    60   ~ 0
Due8
$Comp
L R R29
U 1 1 5A622544
P 11850 3800
F 0 "R29" V 11930 3800 50  0000 C CNN
F 1 "1k" V 11850 3800 50  0000 C CNN
F 2 "Resistors_THT:R_Axial_DIN0207_L6.3mm_D2.5mm_P7.62mm_Horizontal" V 11780 3800 50  0001 C CNN
F 3 "" H 11850 3800 50  0001 C CNN
	1    11850 3800
	1    0    0    -1  
$EndComp
Text Label 11850 3450 0    60   ~ 0
GENERIC4
Connection ~ 11950 4100
Connection ~ 11850 4100
Wire Wire Line
	11850 3950 11850 4100
Connection ~ 11850 3500
Wire Wire Line
	11850 4400 11850 4450
Wire Wire Line
	11850 3450 11850 3650
Wire Wire Line
	11850 4100 11950 4100
$Comp
L Conn_Coaxial J8
U 1 1 5A62315C
P 2800 7850
F 0 "J8" H 2810 7970 50  0000 C CNN
F 1 "Conn_Coaxial" V 2915 7850 50  0000 C CNN
F 2 "footprints:SMA_female" H 2800 7850 50  0001 C CNN
F 3 "" H 2800 7850 50  0001 C CNN
	1    2800 7850
	1    0    0    -1  
$EndComp
$Comp
L GND #PWR057
U 1 1 5A623162
P 2800 8100
F 0 "#PWR057" H 2800 7850 50  0001 C CNN
F 1 "GND" H 2800 7950 50  0000 C CNN
F 2 "" H 2800 8100 50  0001 C CNN
F 3 "" H 2800 8100 50  0001 C CNN
	1    2800 8100
	1    0    0    -1  
$EndComp
Text Label 2600 7850 3    60   ~ 0
Out3
Wire Wire Line
	2800 8050 2800 8100
Wire Wire Line
	2650 7850 2600 7850
Text Label 700  1800 2    60   ~ 0
Out3
$EndSCHEMATC
