EESchema Schematic File Version 2
LIBS:power
LIBS:device
LIBS:switches
LIBS:relays
LIBS:motors
LIBS:transistors
LIBS:conn
LIBS:linear
LIBS:regul
LIBS:74xx
LIBS:cmos4000
LIBS:adc-dac
LIBS:memory
LIBS:xilinx
LIBS:microcontrollers
LIBS:dsp
LIBS:microchip
LIBS:analog_switches
LIBS:motorola
LIBS:texas
LIBS:intel
LIBS:audio
LIBS:interface
LIBS:digital-audio
LIBS:philips
LIBS:display
LIBS:cypress
LIBS:siliconi
LIBS:opto
LIBS:atmel
LIBS:contrib
LIBS:valves
LIBS:custom_library
EELAYER 25 0
EELAYER END
$Descr A4 11693 8268
encoding utf-8
Sheet 1 1
Title "Rig PCB prototype board "
Date ""
Rev "0"
Comp "Nerf - Bonin Lab"
Comment1 "Joao Couto"
Comment2 "Adrien Philippon"
Comment3 ""
Comment4 ""
$EndDescr
Text Notes 1050 1650 1    60   ~ 0
Enc 1
Text Notes 1250 1650 1    60   ~ 0
Enc 2
Text Notes 1450 1650 1    60   ~ 0
Enc 3
Text Notes 1650 1650 1    60   ~ 0
Enc 4
Text Notes 1850 1650 1    60   ~ 0
Enc 5
Text Notes 1150 4650 1    60   ~ 0
Photo GND (BROWN)
Text Notes 1350 4650 1    60   ~ 0
Photo (BLACK)
Text Notes 1600 4650 1    60   ~ 0
Photo PWR (RED)\n/ Lick-spout
Text Notes 7450 1500 1    60   ~ 0
Valve +
Text Notes 7300 1500 1    60   ~ 0
Valve -
Text Notes 4750 2400 1    60   ~ 0
Lick 1 - animal
$Comp
L R R6
U 1 1 599D5792
P 1800 2200
F 0 "R6" V 1880 2200 50  0000 C CNN
F 1 "2.7k" V 1800 2200 50  0000 C CNN
F 2 "Resistors_THT:R_Axial_DIN0207_L6.3mm_D2.5mm_P7.62mm_Horizontal" V 1730 2200 50  0001 C CNN
F 3 "" H 1800 2200 50  0001 C CNN
	1    1800 2200
	1    0    0    -1  
$EndComp
$Comp
L R R1
U 1 1 599D588A
P 1200 2200
F 0 "R1" V 1280 2200 50  0000 C CNN
F 1 "2.7k" V 1200 2200 50  0000 C CNN
F 2 "Resistors_THT:R_Axial_DIN0207_L6.3mm_D2.5mm_P7.62mm_Horizontal" V 1130 2200 50  0001 C CNN
F 3 "" H 1200 2200 50  0001 C CNN
	1    1200 2200
	1    0    0    -1  
$EndComp
$Comp
L R R4
U 1 1 599D5A77
P 1450 5250
F 0 "R4" V 1530 5250 50  0000 C CNN
F 1 "1k" V 1450 5250 50  0000 C CNN
F 2 "Resistors_THT:R_Axial_DIN0207_L6.3mm_D2.5mm_P7.62mm_Horizontal" V 1380 5250 50  0001 C CNN
F 3 "" H 1450 5250 50  0001 C CNN
	1    1450 5250
	0    1    1    0   
$EndComp
$Comp
L R R17
U 1 1 599D5B14
P 8000 3200
F 0 "R17" V 8080 3200 50  0000 C CNN
F 1 "1k" V 8000 3200 50  0000 C CNN
F 2 "Resistors_THT:R_Axial_DIN0207_L6.3mm_D2.5mm_P7.62mm_Horizontal" V 7930 3200 50  0001 C CNN
F 3 "" H 8000 3200 50  0001 C CNN
	1    8000 3200
	-1   0    0    -1  
$EndComp
$Comp
L TIP120 Q5
U 1 1 599D5BA3
P 7550 3050
F 0 "Q5" H 7800 3125 50  0000 L CNN
F 1 "TIP120" H 7800 3050 50  0000 L CNN
F 2 "TO_SOT_Packages_THT:TO-220-3_Vertical" H 7800 2975 50  0001 L CIN
F 3 "" H 7550 3050 50  0001 L CNN
	1    7550 3050
	-1   0    0    -1  
$EndComp
$Comp
L GND #PWR01
U 1 1 599DB514
P 1000 2350
F 0 "#PWR01" H 1000 2100 50  0001 C CNN
F 1 "GND" H 1000 2200 50  0000 C CNN
F 2 "" H 1000 2350 50  0001 C CNN
F 3 "" H 1000 2350 50  0001 C CNN
	1    1000 2350
	1    0    0    -1  
$EndComp
$Comp
L +5V #PWR02
U 1 1 599DB6A7
P 1600 2450
F 0 "#PWR02" H 1600 2300 50  0001 C CNN
F 1 "+5V" H 1600 2590 50  0000 C CNN
F 2 "" H 1600 2450 50  0001 C CNN
F 3 "" H 1600 2450 50  0001 C CNN
	1    1600 2450
	1    0    0    1   
$EndComp
$Comp
L GND #PWR03
U 1 1 599DBAD0
P 1100 5900
F 0 "#PWR03" H 1100 5650 50  0001 C CNN
F 1 "GND" H 1100 5750 50  0000 C CNN
F 2 "" H 1100 5900 50  0001 C CNN
F 3 "" H 1100 5900 50  0001 C CNN
	1    1100 5900
	1    0    0    -1  
$EndComp
$Comp
L +12V #PWR04
U 1 1 599DC491
P 1600 5900
F 0 "#PWR04" H 1600 5750 50  0001 C CNN
F 1 "+12V" H 1600 6040 50  0000 C CNN
F 2 "" H 1600 5900 50  0001 C CNN
F 3 "" H 1600 5900 50  0001 C CNN
	1    1600 5900
	1    0    0    1   
$EndComp
$Comp
L R R2
U 1 1 599DE09B
P 1300 5750
F 0 "R2" V 1380 5750 50  0000 C CNN
F 1 "2.5k" V 1300 5750 50  0000 C CNN
F 2 "Resistors_THT:R_Axial_DIN0207_L6.3mm_D2.5mm_P7.62mm_Horizontal" V 1230 5750 50  0001 C CNN
F 3 "" H 1300 5750 50  0001 C CNN
	1    1300 5750
	0    -1   -1   0   
$EndComp
$Comp
L R R5
U 1 1 599DE0A1
P 1450 5600
F 0 "R5" V 1530 5600 50  0000 C CNN
F 1 "3.9k" V 1450 5600 50  0000 C CNN
F 2 "Resistors_THT:R_Axial_DIN0207_L6.3mm_D2.5mm_P7.62mm_Horizontal" V 1380 5600 50  0001 C CNN
F 3 "" H 1450 5600 50  0001 C CNN
	1    1450 5600
	1    0    0    -1  
$EndComp
$Comp
L GND #PWR05
U 1 1 599DE7BF
P 2700 2200
F 0 "#PWR05" H 2700 1950 50  0001 C CNN
F 1 "GND" H 2700 2050 50  0000 C CNN
F 2 "" H 2700 2200 50  0001 C CNN
F 3 "" H 2700 2200 50  0001 C CNN
	1    2700 2200
	1    0    0    -1  
$EndComp
$Comp
L +5V #PWR06
U 1 1 599DE8CF
P 2900 2200
F 0 "#PWR06" H 2900 2050 50  0001 C CNN
F 1 "+5V" H 2900 2340 50  0000 C CNN
F 2 "" H 2900 2200 50  0001 C CNN
F 3 "" H 2900 2200 50  0001 C CNN
	1    2900 2200
	1    0    0    1   
$EndComp
$Comp
L +12V #PWR07
U 1 1 599DEE02
P 7400 2250
F 0 "#PWR07" H 7400 2100 50  0001 C CNN
F 1 "+12V" H 7400 2390 50  0000 C CNN
F 2 "" H 7400 2250 50  0001 C CNN
F 3 "" H 7400 2250 50  0001 C CNN
	1    7400 2250
	1    0    0    1   
$EndComp
$Comp
L D_Schottky D3
U 1 1 599DEED1
P 7950 2500
F 0 "D3" H 7950 2600 50  0000 C CNN
F 1 "D_Schottky" H 7950 2400 50  0000 C CNN
F 2 "Diodes_THT:D_DO-41_SOD81_P7.62mm_Horizontal" H 7950 2500 50  0001 C CNN
F 3 "" H 7950 2500 50  0001 C CNN
	1    7950 2500
	0    1    1    0   
$EndComp
$Comp
L GND #PWR08
U 1 1 599DF435
P 8600 5250
F 0 "#PWR08" H 8600 5000 50  0001 C CNN
F 1 "GND" H 8600 5100 50  0000 C CNN
F 2 "" H 8600 5250 50  0001 C CNN
F 3 "" H 8600 5250 50  0001 C CNN
	1    8600 5250
	0    -1   1    0   
$EndComp
$Comp
L +5V #PWR09
U 1 1 599DF4EB
P 9300 5450
F 0 "#PWR09" H 9300 5300 50  0001 C CNN
F 1 "+5V" H 9300 5590 50  0000 C CNN
F 2 "" H 9300 5450 50  0001 C CNN
F 3 "" H 9300 5450 50  0001 C CNN
	1    9300 5450
	0    1    1    0   
$EndComp
$Comp
L +12V #PWR010
U 1 1 599DF541
P 8900 5350
F 0 "#PWR010" H 8900 5200 50  0001 C CNN
F 1 "+12V" H 8900 5490 50  0000 C CNN
F 2 "" H 8900 5350 50  0001 C CNN
F 3 "" H 8900 5350 50  0001 C CNN
	1    8900 5350
	0    1    1    0   
$EndComp
Text Notes 7900 4750 0    60   ~ 12
Connector
Text Notes 750  950  0    60   ~ 12
Rig interface board \n- PCB terminal
$Comp
L R R3
U 1 1 599D57E1
P 1400 2200
F 0 "R3" V 1480 2200 50  0000 C CNN
F 1 "2.7k" V 1400 2200 50  0000 C CNN
F 2 "Resistors_THT:R_Axial_DIN0207_L6.3mm_D2.5mm_P7.62mm_Horizontal" V 1330 2200 50  0001 C CNN
F 3 "" H 1400 2200 50  0001 C CNN
	1    1400 2200
	1    0    0    -1  
$EndComp
$Comp
L Conn_01x03 J1
U 1 1 5A4E30F5
P 1300 4750
F 0 "J1" H 1300 4950 50  0000 C CNN
F 1 "Conn_01x03" H 1300 4550 50  0000 C CNN
F 2 "footprints:Plug_conn_3" H 1300 4750 50  0001 C CNN
F 3 "" H 1300 4750 50  0001 C CNN
	1    1300 4750
	0    -1   -1   0   
$EndComp
$Comp
L Conn_01x03 J3
U 1 1 5A4E32BC
P 2900 1750
F 0 "J3" H 2900 1950 50  0000 C CNN
F 1 "Conn_01x03" H 2900 1550 50  0000 C CNN
F 2 "footprints:Plug_conn_3" H 2900 1750 50  0001 C CNN
F 3 "" H 2900 1750 50  0001 C CNN
	1    2900 1750
	0    -1   -1   0   
$EndComp
$Comp
L Conn_01x05 J2
U 1 1 5A4E34AE
P 1450 1750
F 0 "J2" H 1450 2050 50  0000 C CNN
F 1 "Conn_01x05" H 1450 1450 50  0000 C CNN
F 2 "footprints:Plug_conn_5" H 1450 1750 50  0001 C CNN
F 3 "" H 1450 1750 50  0001 C CNN
	1    1450 1750
	0    -1   -1   0   
$EndComp
$Comp
L Conn_01x02 J5
U 1 1 5A4E8A59
P 7300 1600
F 0 "J5" H 7300 1700 50  0000 C CNN
F 1 "Conn_01x02" H 7300 1400 50  0000 C CNN
F 2 "footprints:Plug_conn_2" H 7300 1600 50  0001 C CNN
F 3 "" H 7300 1600 50  0001 C CNN
	1    7300 1600
	0    -1   -1   0   
$EndComp
$Comp
L R R7
U 1 1 5A4EB4DF
P 4900 4050
F 0 "R7" V 4980 4050 50  0000 C CNN
F 1 "10M" V 4900 4050 50  0000 C CNN
F 2 "Resistors_THT:R_Axial_DIN0207_L6.3mm_D2.5mm_P7.62mm_Horizontal" V 4830 4050 50  0001 C CNN
F 3 "" H 4900 4050 50  0001 C CNN
	1    4900 4050
	1    0    0    -1  
$EndComp
$Comp
L R R9
U 1 1 5A4EB4E5
P 5200 4250
F 0 "R9" V 5280 4250 50  0000 C CNN
F 1 "47k" V 5200 4250 50  0000 C CNN
F 2 "Resistors_THT:R_Axial_DIN0207_L6.3mm_D2.5mm_P7.62mm_Horizontal" V 5130 4250 50  0001 C CNN
F 3 "" H 5200 4250 50  0001 C CNN
	1    5200 4250
	1    0    0    -1  
$EndComp
$Comp
L PN2222A Q1
U 1 1 5A4EB4EB
P 5100 3900
F 0 "Q1" H 5300 3975 50  0000 L CNN
F 1 "PN2222A" H 5300 3900 50  0000 L CNN
F 2 "footprints:TO-92_Molded_Narrow_custom" H 5300 3825 50  0001 L CIN
F 3 "" H 5100 3900 50  0001 L CNN
	1    5100 3900
	1    0    0    -1  
$EndComp
$Comp
L PN2222A Q3
U 1 1 5A4EB4F1
P 5650 4100
F 0 "Q3" H 5850 4175 50  0000 L CNN
F 1 "PN2222A" H 5850 4100 50  0000 L CNN
F 2 "footprints:TO-92_Molded_Narrow_custom" H 5850 4025 50  0001 L CIN
F 3 "" H 5650 4100 50  0001 L CNN
	1    5650 4100
	1    0    0    -1  
$EndComp
$Comp
L D D1
U 1 1 5A4EB4F7
P 5750 3400
F 0 "D1" H 5750 3500 50  0000 C CNN
F 1 "D" H 5750 3300 50  0000 C CNN
F 2 "LEDs:LED_D3.0mm" H 5750 3400 50  0001 C CNN
F 3 "" H 5750 3400 50  0001 C CNN
	1    5750 3400
	0    -1   -1   0   
$EndComp
$Comp
L R R13
U 1 1 5A4EB4FD
P 6200 4400
F 0 "R13" V 6280 4400 50  0000 C CNN
F 1 "2.5k" V 6200 4400 50  0000 C CNN
F 2 "Resistors_THT:R_Axial_DIN0207_L6.3mm_D2.5mm_P7.62mm_Horizontal" V 6130 4400 50  0001 C CNN
F 3 "" H 6200 4400 50  0001 C CNN
	1    6200 4400
	0    -1   -1   0   
$EndComp
$Comp
L R R15
U 1 1 5A4EB503
P 6350 4150
F 0 "R15" V 6430 4150 50  0000 C CNN
F 1 "3.9k" V 6350 4150 50  0000 C CNN
F 2 "Resistors_THT:R_Axial_DIN0207_L6.3mm_D2.5mm_P7.62mm_Horizontal" V 6280 4150 50  0001 C CNN
F 3 "" H 6350 4150 50  0001 C CNN
	1    6350 4150
	1    0    0    -1  
$EndComp
$Comp
L GND #PWR011
U 1 1 5A4EB509
P 5200 4400
F 0 "#PWR011" H 5200 4150 50  0001 C CNN
F 1 "GND" H 5200 4250 50  0000 C CNN
F 2 "" H 5200 4400 50  0001 C CNN
F 3 "" H 5200 4400 50  0001 C CNN
	1    5200 4400
	1    0    0    -1  
$EndComp
$Comp
L +12V #PWR012
U 1 1 5A4EB50F
P 5350 3250
F 0 "#PWR012" H 5350 3100 50  0001 C CNN
F 1 "+12V" H 5350 3390 50  0000 C CNN
F 2 "" H 5350 3250 50  0001 C CNN
F 3 "" H 5350 3250 50  0001 C CNN
	1    5350 3250
	1    0    0    -1  
$EndComp
Text Notes 5000 3050 0    60   ~ 12
Lick detector 2
$Comp
L R R11
U 1 1 5A4EB53F
P 5750 3750
F 0 "R11" V 5830 3750 50  0000 C CNN
F 1 "1k" V 5750 3750 50  0000 C CNN
F 2 "Resistors_THT:R_Axial_DIN0207_L6.3mm_D2.5mm_P7.62mm_Horizontal" V 5680 3750 50  0001 C CNN
F 3 "" H 5750 3750 50  0001 C CNN
	1    5750 3750
	1    0    0    -1  
$EndComp
$Comp
L GND #PWR013
U 1 1 5A4EBAF2
P 7450 3450
F 0 "#PWR013" H 7450 3200 50  0001 C CNN
F 1 "GND" H 7450 3300 50  0000 C CNN
F 2 "" H 7450 3450 50  0001 C CNN
F 3 "" H 7450 3450 50  0001 C CNN
	1    7450 3450
	1    0    0    -1  
$EndComp
Text Notes 8600 1500 1    60   ~ 0
Valve +
Text Notes 8450 1500 1    60   ~ 0
Valve -
$Comp
L R R18
U 1 1 5A4EC105
P 9150 3200
F 0 "R18" V 9230 3200 50  0000 C CNN
F 1 "1k" V 9150 3200 50  0000 C CNN
F 2 "Resistors_THT:R_Axial_DIN0207_L6.3mm_D2.5mm_P7.62mm_Horizontal" V 9080 3200 50  0001 C CNN
F 3 "" H 9150 3200 50  0001 C CNN
	1    9150 3200
	-1   0    0    -1  
$EndComp
$Comp
L TIP120 Q6
U 1 1 5A4EC10B
P 8700 3050
F 0 "Q6" H 8950 3125 50  0000 L CNN
F 1 "TIP120" H 8950 3050 50  0000 L CNN
F 2 "TO_SOT_Packages_THT:TO-220-3_Vertical" H 8950 2975 50  0001 L CIN
F 3 "" H 8700 3050 50  0001 L CNN
	1    8700 3050
	-1   0    0    -1  
$EndComp
$Comp
L +12V #PWR014
U 1 1 5A4EC111
P 8550 2250
F 0 "#PWR014" H 8550 2100 50  0001 C CNN
F 1 "+12V" H 8550 2390 50  0000 C CNN
F 2 "" H 8550 2250 50  0001 C CNN
F 3 "" H 8550 2250 50  0001 C CNN
	1    8550 2250
	1    0    0    1   
$EndComp
$Comp
L D_Schottky D4
U 1 1 5A4EC117
P 9100 2500
F 0 "D4" H 9100 2600 50  0000 C CNN
F 1 "D_Schottky" H 9100 2400 50  0000 C CNN
F 2 "Diodes_THT:D_DO-41_SOD81_P7.62mm_Horizontal" H 9100 2500 50  0001 C CNN
F 3 "" H 9100 2500 50  0001 C CNN
	1    9100 2500
	0    1    1    0   
$EndComp
$Comp
L Conn_01x02 J7
U 1 1 5A4EC12A
P 8450 1600
F 0 "J7" H 8450 1700 50  0000 C CNN
F 1 "Conn_01x02" H 8450 1400 50  0000 C CNN
F 2 "footprints:Plug_conn_2" H 8450 1600 50  0001 C CNN
F 3 "" H 8450 1600 50  0001 C CNN
	1    8450 1600
	0    -1   -1   0   
$EndComp
$Comp
L GND #PWR015
U 1 1 5A4EC130
P 8600 3450
F 0 "#PWR015" H 8600 3200 50  0001 C CNN
F 1 "GND" H 8600 3300 50  0000 C CNN
F 2 "" H 8600 3450 50  0001 C CNN
F 3 "" H 8600 3450 50  0001 C CNN
	1    8600 3450
	1    0    0    -1  
$EndComp
$Comp
L Conn_02x08_Counter_Clockwise J6
U 1 1 5A4EE2B7
P 8200 5550
F 0 "J6" H 8250 5950 50  0000 C CNN
F 1 "Conn_02x08_Counter_Clockwise" H 8250 5050 50  0000 C CNN
F 2 "idc_16:conn_idc_16" H 8200 5550 50  0001 C CNN
F 3 "" H 8200 5550 50  0001 C CNN
	1    8200 5550
	1    0    0    -1  
$EndComp
$Comp
L R R8
U 1 1 5A4F1856
P 4900 5750
F 0 "R8" V 4980 5750 50  0000 C CNN
F 1 "10M" V 4900 5750 50  0000 C CNN
F 2 "Resistors_THT:R_Axial_DIN0207_L6.3mm_D2.5mm_P7.62mm_Horizontal" V 4830 5750 50  0001 C CNN
F 3 "" H 4900 5750 50  0001 C CNN
	1    4900 5750
	1    0    0    -1  
$EndComp
$Comp
L R R10
U 1 1 5A4F185C
P 5200 5950
F 0 "R10" V 5280 5950 50  0000 C CNN
F 1 "47k" V 5200 5950 50  0000 C CNN
F 2 "Resistors_THT:R_Axial_DIN0207_L6.3mm_D2.5mm_P7.62mm_Horizontal" V 5130 5950 50  0001 C CNN
F 3 "" H 5200 5950 50  0001 C CNN
	1    5200 5950
	1    0    0    -1  
$EndComp
$Comp
L PN2222A Q2
U 1 1 5A4F1862
P 5100 5600
F 0 "Q2" H 5300 5675 50  0000 L CNN
F 1 "PN2222A" H 5300 5600 50  0000 L CNN
F 2 "footprints:TO-92_Molded_Narrow_custom" H 5300 5525 50  0001 L CIN
F 3 "" H 5100 5600 50  0001 L CNN
	1    5100 5600
	1    0    0    -1  
$EndComp
$Comp
L PN2222A Q4
U 1 1 5A4F1868
P 5650 5800
F 0 "Q4" H 5850 5875 50  0000 L CNN
F 1 "PN2222A" H 5850 5800 50  0000 L CNN
F 2 "footprints:TO-92_Molded_Narrow_custom" H 5850 5725 50  0001 L CIN
F 3 "" H 5650 5800 50  0001 L CNN
	1    5650 5800
	1    0    0    -1  
$EndComp
$Comp
L D D2
U 1 1 5A4F186E
P 5750 5100
F 0 "D2" H 5750 5200 50  0000 C CNN
F 1 "D" H 5750 5000 50  0000 C CNN
F 2 "LEDs:LED_D3.0mm" H 5750 5100 50  0001 C CNN
F 3 "" H 5750 5100 50  0001 C CNN
	1    5750 5100
	0    -1   -1   0   
$EndComp
$Comp
L R R14
U 1 1 5A4F1874
P 6200 6100
F 0 "R14" V 6280 6100 50  0000 C CNN
F 1 "2.5k" V 6200 6100 50  0000 C CNN
F 2 "Resistors_THT:R_Axial_DIN0207_L6.3mm_D2.5mm_P7.62mm_Horizontal" V 6130 6100 50  0001 C CNN
F 3 "" H 6200 6100 50  0001 C CNN
	1    6200 6100
	0    -1   -1   0   
$EndComp
$Comp
L R R16
U 1 1 5A4F187A
P 6350 5850
F 0 "R16" V 6430 5850 50  0000 C CNN
F 1 "3.9k" V 6350 5850 50  0000 C CNN
F 2 "Resistors_THT:R_Axial_DIN0207_L6.3mm_D2.5mm_P7.62mm_Horizontal" V 6280 5850 50  0001 C CNN
F 3 "" H 6350 5850 50  0001 C CNN
	1    6350 5850
	1    0    0    -1  
$EndComp
$Comp
L GND #PWR016
U 1 1 5A4F1880
P 5200 6100
F 0 "#PWR016" H 5200 5850 50  0001 C CNN
F 1 "GND" H 5200 5950 50  0000 C CNN
F 2 "" H 5200 6100 50  0001 C CNN
F 3 "" H 5200 6100 50  0001 C CNN
	1    5200 6100
	1    0    0    -1  
$EndComp
$Comp
L +12V #PWR017
U 1 1 5A4F1886
P 5350 4950
F 0 "#PWR017" H 5350 4800 50  0001 C CNN
F 1 "+12V" H 5350 5090 50  0000 C CNN
F 2 "" H 5350 4950 50  0001 C CNN
F 3 "" H 5350 4950 50  0001 C CNN
	1    5350 4950
	1    0    0    -1  
$EndComp
Text Notes 5000 4750 0    60   ~ 12
Lick detector 1
$Comp
L R R12
U 1 1 5A4F18A0
P 5750 5450
F 0 "R12" V 5830 5450 50  0000 C CNN
F 1 "1k" V 5750 5450 50  0000 C CNN
F 2 "Resistors_THT:R_Axial_DIN0207_L6.3mm_D2.5mm_P7.62mm_Horizontal" V 5680 5450 50  0001 C CNN
F 3 "" H 5750 5450 50  0001 C CNN
	1    5750 5450
	1    0    0    -1  
$EndComp
Text Notes 4850 2400 1    60   ~ 0
Lick 2 - animal
Text Label 8950 5550 0    60   ~ 0
CH1
Text Label 8950 5650 0    60   ~ 0
CH2
Text Label 8950 5750 0    60   ~ 0
PHOTO
Text Label 8500 5850 0    60   ~ 0
VALVE1
Text Label 1350 3200 0    60   ~ 0
CH1
Text Label 1750 3200 0    60   ~ 0
CH2
Text Label 3100 2600 0    60   ~ 0
GENERIC1
Text Label 8000 5450 2    60   ~ 0
GENERIC1
Text Label 7600 5250 2    60   ~ 0
LICK1
Text Label 7600 5350 2    60   ~ 0
LICK2
Text Label 3250 7150 2    60   ~ 0
LICK2
Text Label 3250 6950 2    60   ~ 0
LICK1
Text Label 8000 3550 0    60   ~ 0
VALVE1
Text Label 9150 3550 0    60   ~ 0
VALVE2
Text Label 8500 5950 0    60   ~ 0
VALVE2
Text Label 3250 6750 2    60   ~ 0
PHOTO
Text Label 8000 5550 2    60   ~ 0
GENERIC2
$Comp
L +12V #PWR018
U 1 1 5A50F4A9
P 9900 5250
F 0 "#PWR018" H 9900 5100 50  0001 C CNN
F 1 "+12V" H 9900 5390 50  0000 C CNN
F 2 "" H 9900 5250 50  0001 C CNN
F 3 "" H 9900 5250 50  0001 C CNN
	1    9900 5250
	-1   0    0    1   
$EndComp
$Comp
L +5V #PWR019
U 1 1 5A50F511
P 9900 5850
F 0 "#PWR019" H 9900 5700 50  0001 C CNN
F 1 "+5V" H 9900 5990 50  0000 C CNN
F 2 "" H 9900 5850 50  0001 C CNN
F 3 "" H 9900 5850 50  0001 C CNN
	1    9900 5850
	-1   0    0    1   
$EndComp
$Comp
L GND #PWR020
U 1 1 5A50F5F7
P 10700 5250
F 0 "#PWR020" H 10700 5000 50  0001 C CNN
F 1 "GND" H 10700 5100 50  0000 C CNN
F 2 "" H 10700 5250 50  0001 C CNN
F 3 "" H 10700 5250 50  0001 C CNN
	1    10700 5250
	1    0    0    -1  
$EndComp
$Comp
L PWR_FLAG #FLG021
U 1 1 5A50F785
P 10700 5100
F 0 "#FLG021" H 10700 5175 50  0001 C CNN
F 1 "PWR_FLAG" H 10700 5250 50  0000 C CNN
F 2 "" H 10700 5100 50  0001 C CNN
F 3 "" H 10700 5100 50  0001 C CNN
	1    10700 5100
	1    0    0    -1  
$EndComp
$Comp
L PWR_FLAG #FLG022
U 1 1 5A50F841
P 9900 5700
F 0 "#FLG022" H 9900 5775 50  0001 C CNN
F 1 "PWR_FLAG" H 9900 5850 50  0000 C CNN
F 2 "" H 9900 5700 50  0001 C CNN
F 3 "" H 9900 5700 50  0001 C CNN
	1    9900 5700
	1    0    0    -1  
$EndComp
$Comp
L PWR_FLAG #FLG023
U 1 1 5A50F8A9
P 9900 5100
F 0 "#FLG023" H 9900 5175 50  0001 C CNN
F 1 "PWR_FLAG" H 9900 5250 50  0000 C CNN
F 2 "" H 9900 5100 50  0001 C CNN
F 3 "" H 9900 5100 50  0001 C CNN
	1    9900 5100
	1    0    0    -1  
$EndComp
Text Notes 9600 4750 0    60   ~ 12
Power flags
$Comp
L Conn_01x03 J9
U 1 1 5A501806
P 4800 2500
F 0 "J9" H 4800 2700 50  0000 C CNN
F 1 "Conn_01x03" H 4800 2300 50  0000 C CNN
F 2 "footprints:Plug_conn_3" H 4800 2500 50  0001 C CNN
F 3 "" H 4800 2500 50  0001 C CNN
	1    4800 2500
	0    -1   -1   0   
$EndComp
$Comp
L +12V #PWR024
U 1 1 5A5018DF
P 4900 2750
F 0 "#PWR024" H 4900 2600 50  0001 C CNN
F 1 "+12V" H 4900 2890 50  0000 C CNN
F 2 "" H 4900 2750 50  0001 C CNN
F 3 "" H 4900 2750 50  0001 C CNN
	1    4900 2750
	-1   0    0    1   
$EndComp
Text Notes 4950 2400 1    60   ~ 0
Lick Power
$Comp
L GND #PWR025
U 1 1 5A50A1DA
P 2700 4000
F 0 "#PWR025" H 2700 3750 50  0001 C CNN
F 1 "GND" H 2700 3850 50  0000 C CNN
F 2 "" H 2700 4000 50  0001 C CNN
F 3 "" H 2700 4000 50  0001 C CNN
	1    2700 4000
	1    0    0    -1  
$EndComp
$Comp
L +5V #PWR026
U 1 1 5A50A1E0
P 2900 4000
F 0 "#PWR026" H 2900 3850 50  0001 C CNN
F 1 "+5V" H 2900 4140 50  0000 C CNN
F 2 "" H 2900 4000 50  0001 C CNN
F 3 "" H 2900 4000 50  0001 C CNN
	1    2900 4000
	1    0    0    1   
$EndComp
$Comp
L Conn_01x03 J4
U 1 1 5A50A1E6
P 2900 3550
F 0 "J4" H 2900 3750 50  0000 C CNN
F 1 "Conn_01x03" H 2900 3350 50  0000 C CNN
F 2 "footprints:Plug_conn_3" H 2900 3550 50  0001 C CNN
F 3 "" H 2900 3550 50  0001 C CNN
	1    2900 3550
	0    -1   -1   0   
$EndComp
Text Label 3100 4400 0    60   ~ 0
GENERIC2
$Comp
L GND #PWR027
U 1 1 5A563F94
P 8000 5950
F 0 "#PWR027" H 8000 5700 50  0001 C CNN
F 1 "GND" H 8000 5800 50  0000 C CNN
F 2 "" H 8000 5950 50  0001 C CNN
F 3 "" H 8000 5950 50  0001 C CNN
	1    8000 5950
	0    1    1    0   
$EndComp
$Comp
L GND #PWR028
U 1 1 5A564027
P 8000 5850
F 0 "#PWR028" H 8000 5600 50  0001 C CNN
F 1 "GND" H 8000 5700 50  0000 C CNN
F 2 "" H 8000 5850 50  0001 C CNN
F 3 "" H 8000 5850 50  0001 C CNN
	1    8000 5850
	0    1    1    0   
$EndComp
$Comp
L sn74hct14 U1
U 1 1 5A5674AD
P 3650 6950
F 0 "U1" H 3650 6500 60  0000 C CNN
F 1 "sn74hct14" H 3650 7400 60  0000 C CNN
F 2 "footprints:sn74hct14" H 3450 7100 60  0001 C CNN
F 3 "" H 3450 7100 60  0001 C CNN
	1    3650 6950
	1    0    0    -1  
$EndComp
$Comp
L GND #PWR029
U 1 1 5A56765F
P 3250 7250
F 0 "#PWR029" H 3250 7000 50  0001 C CNN
F 1 "GND" H 3250 7100 50  0000 C CNN
F 2 "" H 3250 7250 50  0001 C CNN
F 3 "" H 3250 7250 50  0001 C CNN
	1    3250 7250
	0    1    1    0   
$EndComp
$Comp
L +5V #PWR030
U 1 1 5A5676CB
P 4050 6650
F 0 "#PWR030" H 4050 6500 50  0001 C CNN
F 1 "+5V" H 4050 6790 50  0000 C CNN
F 2 "" H 4050 6650 50  0001 C CNN
F 3 "" H 4050 6650 50  0001 C CNN
	1    4050 6650
	0    1    1    0   
$EndComp
Text Label 1650 6450 0    60   ~ 0
PHOTO_HEX
Text Label 3250 6650 2    60   ~ 0
PHOTO_HEX
Text Label 6550 6100 0    60   ~ 0
LICK1_HEX
Text Label 3250 6850 2    60   ~ 0
LICK1_HEX
Text Label 6550 4400 0    60   ~ 0
LICK2_HEX
Text Label 3250 7050 2    60   ~ 0
LICK2_HEX
NoConn ~ 4050 6750
NoConn ~ 4050 6850
NoConn ~ 4050 6950
NoConn ~ 4050 7050
NoConn ~ 4050 7150
NoConn ~ 4050 7250
$Comp
L R R23
U 1 1 5A58C647
P 7800 5250
F 0 "R23" V 7880 5250 50  0000 C CNN
F 1 "R" V 7800 5250 50  0000 C CNN
F 2 "Pin_Headers:Pin_Header_Straight_1x02_Pitch2.54mm" V 7730 5250 50  0001 C CNN
F 3 "" H 7800 5250 50  0001 C CNN
	1    7800 5250
	0    1    1    0   
$EndComp
$Comp
L R R22
U 1 1 5A58C6D0
P 7800 5350
F 0 "R22" V 7880 5350 50  0000 C CNN
F 1 "R" V 7800 5350 50  0000 C CNN
F 2 "Pin_Headers:Pin_Header_Straight_1x02_Pitch2.54mm" V 7730 5350 50  0001 C CNN
F 3 "" H 7800 5350 50  0001 C CNN
	1    7800 5350
	0    1    1    0   
$EndComp
$Comp
L R R20
U 1 1 5A58C793
P 8700 5550
F 0 "R20" V 8780 5550 50  0000 C CNN
F 1 "R" V 8700 5550 50  0000 C CNN
F 2 "Pin_Headers:Pin_Header_Straight_1x02_Pitch2.54mm" V 8630 5550 50  0001 C CNN
F 3 "" H 8700 5550 50  0001 C CNN
	1    8700 5550
	0    -1   -1   0   
$EndComp
$Comp
L R R21
U 1 1 5A58C802
P 8700 5650
F 0 "R21" V 8780 5650 50  0000 C CNN
F 1 "R" V 8700 5650 50  0000 C CNN
F 2 "Pin_Headers:Pin_Header_Straight_1x02_Pitch2.54mm" V 8630 5650 50  0001 C CNN
F 3 "" H 8700 5650 50  0001 C CNN
	1    8700 5650
	0    -1   -1   0   
$EndComp
$Comp
L R R24
U 1 1 5A58C873
P 8700 5750
F 0 "R24" V 8780 5750 50  0000 C CNN
F 1 "R" V 8700 5750 50  0000 C CNN
F 2 "Pin_Headers:Pin_Header_Straight_1x02_Pitch2.54mm" V 8630 5750 50  0001 C CNN
F 3 "" H 8700 5750 50  0001 C CNN
	1    8700 5750
	0    -1   -1   0   
$EndComp
Text Label 8000 5650 2    60   ~ 0
GENERIC3
$Comp
L GND #PWR031
U 1 1 5A58DEA6
P 2650 5700
F 0 "#PWR031" H 2650 5450 50  0001 C CNN
F 1 "GND" H 2650 5550 50  0000 C CNN
F 2 "" H 2650 5700 50  0001 C CNN
F 3 "" H 2650 5700 50  0001 C CNN
	1    2650 5700
	1    0    0    -1  
$EndComp
$Comp
L +5V #PWR032
U 1 1 5A58DEAC
P 2850 5700
F 0 "#PWR032" H 2850 5550 50  0001 C CNN
F 1 "+5V" H 2850 5840 50  0000 C CNN
F 2 "" H 2850 5700 50  0001 C CNN
F 3 "" H 2850 5700 50  0001 C CNN
	1    2850 5700
	1    0    0    1   
$EndComp
$Comp
L Conn_01x03 J10
U 1 1 5A58DEB2
P 2850 5250
F 0 "J10" H 2850 5450 50  0000 C CNN
F 1 "Conn_01x03" H 2850 5050 50  0000 C CNN
F 2 "footprints:Plug_conn_3" H 2850 5250 50  0001 C CNN
F 3 "" H 2850 5250 50  0001 C CNN
	1    2850 5250
	0    -1   -1   0   
$EndComp
Text Label 3050 6100 0    60   ~ 0
GENERIC3
$Comp
L C C1
U 1 1 5A58E23F
P 10300 5100
F 0 "C1" H 10325 5200 50  0000 L CNN
F 1 "C" H 10325 5000 50  0000 L CNN
F 2 "Capacitors_THT:C_Axial_L3.8mm_D2.6mm_P12.50mm_Horizontal" H 10338 4950 50  0001 C CNN
F 3 "" H 10300 5100 50  0001 C CNN
	1    10300 5100
	0    1    1    0   
$EndComp
$Comp
L C C2
U 1 1 5A58E2B8
P 10300 5300
F 0 "C2" H 10325 5400 50  0000 L CNN
F 1 "C" H 10325 5200 50  0000 L CNN
F 2 "Capacitors_THT:C_Axial_L3.8mm_D2.6mm_P12.50mm_Horizontal" H 10338 5150 50  0001 C CNN
F 3 "" H 10300 5300 50  0001 C CNN
	1    10300 5300
	0    1    1    0   
$EndComp
$Comp
L C C3
U 1 1 5A58E67A
P 10300 5500
F 0 "C3" H 10325 5600 50  0000 L CNN
F 1 "C" H 10325 5400 50  0000 L CNN
F 2 "Capacitors_THT:C_Axial_L3.8mm_D2.6mm_P12.50mm_Horizontal" H 10338 5350 50  0001 C CNN
F 3 "" H 10300 5500 50  0001 C CNN
	1    10300 5500
	0    1    1    0   
$EndComp
$Comp
L R R25
U 1 1 5A58F268
P 7400 2050
F 0 "R25" V 7480 2050 50  0000 C CNN
F 1 "R" V 7400 2050 50  0000 C CNN
F 2 "Pin_Headers:Pin_Header_Straight_1x02_Pitch2.54mm" V 7330 2050 50  0001 C CNN
F 3 "" H 7400 2050 50  0001 C CNN
	1    7400 2050
	1    0    0    -1  
$EndComp
$Comp
L R R26
U 1 1 5A58F2F3
P 8550 2050
F 0 "R26" V 8630 2050 50  0000 C CNN
F 1 "R" V 8550 2050 50  0000 C CNN
F 2 "Pin_Headers:Pin_Header_Straight_1x02_Pitch2.54mm" V 8480 2050 50  0001 C CNN
F 3 "" H 8550 2050 50  0001 C CNN
	1    8550 2050
	1    0    0    -1  
$EndComp
$Comp
L Conn_01x01 J11
U 1 1 5A592C76
P 8550 5000
F 0 "J11" H 8550 5100 50  0000 C CNN
F 1 "Conn_01x01" H 8550 4900 50  0000 C CNN
F 2 "Pin_Headers:Pin_Header_Straight_1x01_Pitch2.54mm" H 8550 5000 50  0001 C CNN
F 3 "" H 8550 5000 50  0001 C CNN
	1    8550 5000
	0    -1   -1   0   
$EndComp
$Comp
L Conn_01x01 J12
U 1 1 5A592D1F
P 8850 5000
F 0 "J12" H 8850 5100 50  0000 C CNN
F 1 "Conn_01x01" H 8850 4900 50  0000 C CNN
F 2 "Pin_Headers:Pin_Header_Straight_1x01_Pitch2.54mm" H 8850 5000 50  0001 C CNN
F 3 "" H 8850 5000 50  0001 C CNN
	1    8850 5000
	0    -1   -1   0   
$EndComp
$Comp
L Conn_01x01 J13
U 1 1 5A592DBA
P 9200 5000
F 0 "J13" H 9200 5100 50  0000 C CNN
F 1 "Conn_01x01" H 9200 4900 50  0000 C CNN
F 2 "Pin_Headers:Pin_Header_Straight_1x01_Pitch2.54mm" H 9200 5000 50  0001 C CNN
F 3 "" H 9200 5000 50  0001 C CNN
	1    9200 5000
	0    -1   -1   0   
$EndComp
$Comp
L C C4
U 1 1 5A60BE82
P 10300 5750
F 0 "C4" H 10325 5850 50  0000 L CNN
F 1 "C" H 10325 5650 50  0000 L CNN
F 2 "Capacitors_THT:C_Axial_L3.8mm_D2.6mm_P12.50mm_Horizontal" H 10338 5600 50  0001 C CNN
F 3 "" H 10300 5750 50  0001 C CNN
	1    10300 5750
	0    1    1    0   
$EndComp
$Comp
L C C5
U 1 1 5A60BF25
P 10300 5950
F 0 "C5" H 10325 6050 50  0000 L CNN
F 1 "C" H 10325 5850 50  0000 L CNN
F 2 "Capacitors_THT:C_Axial_L3.8mm_D2.6mm_P12.50mm_Horizontal" H 10338 5800 50  0001 C CNN
F 3 "" H 10300 5950 50  0001 C CNN
	1    10300 5950
	0    1    1    0   
$EndComp
$Comp
L GND #PWR033
U 1 1 5A60BFB0
P 10600 6000
F 0 "#PWR033" H 10600 5750 50  0001 C CNN
F 1 "GND" H 10600 5850 50  0000 C CNN
F 2 "" H 10600 6000 50  0001 C CNN
F 3 "" H 10600 6000 50  0001 C CNN
	1    10600 6000
	1    0    0    -1  
$EndComp
Wire Wire Line
	7450 3450 7450 3250
Connection ~ 1400 2350
Wire Wire Line
	1200 2350 1800 2350
Connection ~ 1800 2350
Connection ~ 1200 2350
Wire Wire Line
	1600 2050 1600 2450
Wire Wire Line
	1400 5050 1600 5050
Wire Wire Line
	1300 4950 1300 5450
Wire Wire Line
	1300 5450 1450 5450
Connection ~ 1750 3200
Connection ~ 1350 3200
Wire Wire Line
	1350 2050 1350 3200
Wire Wire Line
	1750 2050 1750 3200
Wire Wire Line
	1450 5750 1450 5850
Wire Wire Line
	1450 5850 1350 5850
Wire Wire Line
	2700 1950 2700 2200
Wire Wire Line
	2900 1950 2900 2200
Connection ~ 3100 2600
Wire Wire Line
	3100 1950 3100 2600
Wire Wire Line
	7450 2550 7450 2850
Wire Wire Line
	7300 2550 7450 2550
Wire Wire Line
	7300 1800 7300 2550
Wire Wire Line
	7950 2650 7450 2650
Connection ~ 7450 2650
Wire Wire Line
	7950 1850 7950 2350
Wire Wire Line
	7950 1850 7400 1850
Wire Wire Line
	8000 3050 7750 3050
Connection ~ 8000 3550
Wire Wire Line
	8000 3350 8000 3550
Wire Wire Line
	1350 2050 1450 2050
Wire Wire Line
	1750 2050 1800 2050
Wire Wire Line
	1250 1950 1000 1950
Wire Wire Line
	1350 1950 1300 1950
Wire Wire Line
	1300 1950 1300 2000
Wire Wire Line
	1300 2000 1200 2000
Wire Wire Line
	1200 2000 1200 2050
Wire Wire Line
	1450 2050 1450 1950
Connection ~ 1400 2050
Wire Wire Line
	1550 1950 1550 2050
Wire Wire Line
	1550 2050 1600 2050
Wire Wire Line
	1650 1950 1800 1950
Wire Wire Line
	1800 1950 1800 2050
Wire Wire Line
	2800 1950 2700 1950
Wire Wire Line
	3000 1950 3100 1950
Wire Wire Line
	1200 4950 1100 4950
Wire Wire Line
	1400 4950 1400 5050
Connection ~ 1300 5250
Connection ~ 1600 5250
Connection ~ 1450 5750
Connection ~ 4900 3900
Connection ~ 5200 4100
Wire Wire Line
	5750 4400 5750 4300
Wire Wire Line
	4900 4400 6050 4400
Wire Wire Line
	4900 4200 4900 4400
Connection ~ 5200 4400
Wire Wire Line
	5200 3250 5750 3250
Connection ~ 5350 3250
Connection ~ 5750 4200
Connection ~ 5750 3900
Connection ~ 5750 4400
Connection ~ 6350 4400
Wire Wire Line
	5750 3900 6350 3900
Wire Wire Line
	6350 4300 6350 4400
Wire Wire Line
	5200 4100 5450 4100
Wire Wire Line
	4800 3900 4900 3900
Wire Wire Line
	6350 3900 6350 4000
Wire Wire Line
	8600 3450 8600 3250
Wire Wire Line
	8600 2550 8600 2850
Wire Wire Line
	8450 2550 8600 2550
Wire Wire Line
	8450 1800 8450 2550
Wire Wire Line
	9100 2650 8600 2650
Connection ~ 8600 2650
Wire Wire Line
	9100 1850 9100 2350
Wire Wire Line
	9150 3050 8900 3050
Connection ~ 9150 3550
Wire Wire Line
	9150 3350 9150 3550
Wire Wire Line
	1350 5850 1350 6450
Connection ~ 4900 5600
Connection ~ 5200 5800
Wire Wire Line
	5750 6100 5750 6000
Wire Wire Line
	4900 6100 6050 6100
Wire Wire Line
	4900 5900 4900 6100
Connection ~ 5200 6100
Wire Wire Line
	5200 4950 5750 4950
Connection ~ 5350 4950
Connection ~ 5750 5900
Connection ~ 5750 5600
Connection ~ 5750 6100
Connection ~ 6350 6100
Wire Wire Line
	5750 5600 6350 5600
Wire Wire Line
	6350 6000 6350 6100
Wire Wire Line
	5200 5800 5450 5800
Wire Wire Line
	4700 5600 4900 5600
Wire Wire Line
	6350 5600 6350 5700
Wire Wire Line
	4700 2700 4700 5600
Wire Wire Line
	4800 2700 4800 3900
Connection ~ 1800 2050
Connection ~ 1200 2050
Wire Wire Line
	5750 3550 5750 3600
Wire Wire Line
	5750 5250 5750 5300
Wire Wire Line
	5200 3700 5200 3250
Wire Wire Line
	5200 5400 5200 4950
Connection ~ 1600 2350
Wire Wire Line
	1150 5750 1100 5750
Connection ~ 1100 5750
Wire Wire Line
	1600 5050 1600 5900
Wire Wire Line
	1100 4950 1100 5900
Wire Wire Line
	1000 1950 1000 2350
Wire Wire Line
	10700 5100 10700 5250
Wire Wire Line
	9900 5700 9900 5850
Wire Wire Line
	9900 5100 9900 5250
Wire Wire Line
	9100 1850 8550 1850
Wire Wire Line
	4900 2700 4900 2750
Wire Wire Line
	2700 3750 2700 4000
Wire Wire Line
	2900 3750 2900 4000
Connection ~ 3100 4400
Wire Wire Line
	3100 3750 3100 4400
Wire Wire Line
	2800 3750 2700 3750
Wire Wire Line
	3000 3750 3100 3750
Wire Wire Line
	1350 6450 1650 6450
Wire Wire Line
	6350 6100 6550 6100
Wire Wire Line
	6350 4400 6550 4400
Wire Wire Line
	7600 5250 7650 5250
Wire Wire Line
	7600 5350 7650 5350
Wire Wire Line
	7950 5250 8000 5250
Wire Wire Line
	7950 5350 8000 5350
Wire Wire Line
	8850 5550 8950 5550
Wire Wire Line
	8850 5650 8950 5650
Wire Wire Line
	8850 5750 8950 5750
Wire Wire Line
	8550 5550 8500 5550
Wire Wire Line
	8550 5650 8500 5650
Wire Wire Line
	8550 5750 8500 5750
Wire Wire Line
	2650 5450 2650 5700
Wire Wire Line
	2850 5450 2850 5700
Connection ~ 3050 6100
Wire Wire Line
	3050 5450 3050 6100
Wire Wire Line
	2750 5450 2650 5450
Wire Wire Line
	2950 5450 3050 5450
Wire Wire Line
	9900 5150 10150 5150
Wire Wire Line
	10150 5150 10150 5100
Connection ~ 9900 5150
Wire Wire Line
	9900 5200 10150 5200
Wire Wire Line
	10150 5200 10150 5300
Connection ~ 9900 5200
Wire Wire Line
	10450 5100 10700 5100
Wire Wire Line
	10450 5300 10450 5150
Wire Wire Line
	10450 5150 10700 5150
Connection ~ 10700 5150
Wire Wire Line
	9900 5250 10100 5250
Wire Wire Line
	10100 5250 10100 5500
Wire Wire Line
	10100 5500 10150 5500
Wire Wire Line
	10450 5500 10550 5500
Wire Wire Line
	10550 5500 10550 5250
Wire Wire Line
	10550 5250 10700 5250
Wire Wire Line
	7400 1900 7400 1800
Wire Wire Line
	7400 2250 7400 2200
Wire Wire Line
	8550 1800 8550 1900
Wire Wire Line
	8550 2250 8550 2200
Wire Wire Line
	8500 5250 8600 5250
Wire Wire Line
	8500 5350 8900 5350
Wire Wire Line
	8500 5450 9300 5450
Wire Wire Line
	8550 5200 8550 5250
Connection ~ 8550 5250
Wire Wire Line
	8850 5200 8850 5350
Connection ~ 8850 5350
Wire Wire Line
	9200 5200 9200 5450
Connection ~ 9200 5450
Connection ~ 8550 1850
Connection ~ 7400 1850
Wire Wire Line
	9900 5750 10150 5750
Connection ~ 9900 5750
Wire Wire Line
	10000 5750 10000 5950
Wire Wire Line
	10000 5950 10150 5950
Connection ~ 10000 5750
Wire Wire Line
	10450 5750 10600 5750
Wire Wire Line
	10600 5750 10600 6000
Wire Wire Line
	10450 5950 10600 5950
Connection ~ 10600 5950
Text Label 8000 5750 2    60   ~ 0
GENERIC4
$Comp
L GND #PWR034
U 1 1 5A65FD25
P 3850 5700
F 0 "#PWR034" H 3850 5450 50  0001 C CNN
F 1 "GND" H 3850 5550 50  0000 C CNN
F 2 "" H 3850 5700 50  0001 C CNN
F 3 "" H 3850 5700 50  0001 C CNN
	1    3850 5700
	1    0    0    -1  
$EndComp
$Comp
L +5V #PWR035
U 1 1 5A65FD2B
P 4050 5700
F 0 "#PWR035" H 4050 5550 50  0001 C CNN
F 1 "+5V" H 4050 5840 50  0000 C CNN
F 2 "" H 4050 5700 50  0001 C CNN
F 3 "" H 4050 5700 50  0001 C CNN
	1    4050 5700
	1    0    0    1   
$EndComp
$Comp
L Conn_01x03 J8
U 1 1 5A65FD31
P 4050 5250
F 0 "J8" H 4050 5450 50  0000 C CNN
F 1 "Conn_01x03" H 4050 5050 50  0000 C CNN
F 2 "footprints:Plug_conn_3" H 4050 5250 50  0001 C CNN
F 3 "" H 4050 5250 50  0001 C CNN
	1    4050 5250
	0    -1   -1   0   
$EndComp
Text Label 4250 6100 0    60   ~ 0
GENERIC4
Wire Wire Line
	3850 5450 3850 5700
Wire Wire Line
	4050 5450 4050 5700
Connection ~ 4250 6100
Wire Wire Line
	4250 5450 4250 6100
Wire Wire Line
	3950 5450 3850 5450
Wire Wire Line
	4150 5450 4250 5450
$EndSCHEMATC
